{
  "annotations": {
    "list": [
      {
        "builtIn": 1,
        "datasource": "-- Grafana --",
        "enable": true,
        "hide": true,
        "iconColor": "rgba(0, 211, 255, 1)",
        "name": "Annotations & Alerts",
        "target": {
          "limit": 100,
          "matchAny": false,
          "tags": [],
          "type": "dashboard"
        },
        "type": "dashboard"
      }
    ]
  },
  "description": "Process status published by Go prometheus client library, e.g. memory used, fds open, GC details",
  "editable": true,
  "gnetId": 6671,
  "graphTooltip": 0,
  "id": 2393,
  "iteration": 1633605079276,
  "links": [],
  "panels": [
    {
      "datasource": "prometheus",
      "fieldConfig": {
        "defaults": {
          "custom": {},
          "mappings": [],
          "max": 1,
          "min": 0,
          "thresholds": {
            "mode": "absolute",
            "steps": [
              {
                "color": "dark-red",
                "value": null
              },
              {
                "color": "#EAB839",
                "value": 0.9
              },
              {
                "color": "dark-green",
                "value": 0.99
              }
            ]
          },
          "unit": "percentunit"
        },
        "overrides": []
      },
      "gridPos": {
        "h": 5,
        "w": 6,
        "x": 0,
        "y": 0
      },
      "id": 21,
      "options": {
        "reduceOptions": {
          "calcs": [
            "lastNotNull"
          ],
          "fields": "",
          "values": false
        },
        "showThresholdLabels": false,
        "showThresholdMarkers": true
      },
      "pluginVersion": "7.1.0",
      "targets": [
        {
          "expr": "sum(irate(response_total{classification=\"success\", cluster=~\"^($cluster)$\", namespace=~\"^($namespace)$\", pod=~\"^($pod)$\", direction=\"inbound\"}[1m])) / sum(irate(response_total{cluster=~\"^($cluster)$\", namespace=~\"^($namespace)$\", pod=~\"^($pod)$\", direction=\"inbound\"}[1m]))",
          "interval": "",
          "legendFormat": "",
          "refId": "A"
        }
      ],
      "timeFrom": null,
      "timeShift": null,
      "title": "Response SUCCESS RATE",
      "transparent": true,
      "type": "gauge"
    },
    {
      "aliasColors": {},
      "bars": false,
      "dashLength": 10,
      "dashes": false,
      "datasource": "prometheus",
      "description": "",
      "fieldConfig": {
        "defaults": {
          "custom": {}
        },
        "overrides": []
      },
      "fill": 1,
      "fillGradient": 0,
      "gridPos": {
        "h": 5,
        "w": 6,
        "x": 6,
        "y": 0
      },
      "hiddenSeries": false,
      "id": 23,
      "legend": {
        "avg": false,
        "current": false,
        "max": false,
        "min": false,
        "show": false,
        "total": false,
        "values": false
      },
      "lines": true,
      "linewidth": 1,
      "nullPointMode": "connected",
      "percentage": false,
      "pluginVersion": "7.1.0",
      "pointradius": 2,
      "points": false,
      "renderer": "flot",
      "seriesOverrides": [],
      "spaceLength": 10,
      "stack": false,
      "steppedLine": false,
      "targets": [
        {
          "expr": "sum(irate(response_total{classification=\"success\", cluster=~\"^($cluster)$\", namespace=~\"^($namespace)$\", pod=~\"^($pod)$\", direction=\"inbound\"}[1m])) by (cluster, namespace, pod) / sum(irate(response_total{cluster=~\"^($cluster)$\", namespace=~\"^($namespace)$\", pod=~\"^($pod)$\", direction=\"inbound\"}[1m])) by (cluster, namespace, pod)",
          "interval": "",
          "legendFormat": "{{cluster }} {{namespace}} {{pod}}",
          "refId": "A"
        }
      ],
      "thresholds": [],
      "timeFrom": null,
      "timeRegions": [],
      "timeShift": null,
      "title": "SUCCESS RATE",
      "tooltip": {
        "shared": true,
        "sort": 0,
        "value_type": "individual"
      },
      "type": "graph",
      "xaxis": {
        "buckets": null,
        "mode": "time",
        "name": null,
        "show": true,
        "values": []
      },
      "yaxes": [
        {
          "format": "percentunit",
          "label": null,
          "logBase": 1,
          "max": "1",
          "min": "0",
          "show": true
        },
        {
          "format": "short",
          "label": null,
          "logBase": 1,
          "max": null,
          "min": null,
          "show": true
        }
      ],
      "yaxis": {
        "align": false,
        "alignLevel": null
      }
    },
    {
      "datasource": "prometheus",
      "fieldConfig": {
        "defaults": {
          "custom": {},
          "mappings": [],
          "thresholds": {
            "mode": "absolute",
            "steps": [
              {
                "color": "green",
                "value": null
              },
              {
                "color": "red",
                "value": 80
              }
            ]
          }
        },
        "overrides": []
      },
      "gridPos": {
        "h": 5,
        "w": 6,
        "x": 12,
        "y": 0
      },
      "id": 25,
      "options": {
        "colorMode": "value",
        "graphMode": "area",
        "justifyMode": "auto",
        "orientation": "horizontal",
        "reduceOptions": {
          "calcs": [
            "lastNotNull"
          ],
          "fields": "",
          "values": false
        },
        "textMode": "value_and_name"
      },
      "pluginVersion": "7.1.0",
      "targets": [
        {
          "expr": "sum(irate(request_total{cluster=~\"^($cluster)$\", namespace=~\"^($namespace)$\", pod=~\"^($pod)$\", direction=\"inbound\"}[1m]))",
          "interval": "",
          "legendFormat": "rps",
          "refId": "A"
        }
      ],
      "timeFrom": null,
      "timeShift": null,
      "title": "REQUEST RATE",
      "transparent": true,
      "type": "stat"
    },
    {
      "aliasColors": {},
      "bars": false,
      "dashLength": 10,
      "dashes": false,
      "datasource": "prometheus",
      "fieldConfig": {
        "defaults": {
          "custom": {}
        },
        "overrides": []
      },
      "fill": 0,
      "fillGradient": 0,
      "gridPos": {
        "h": 5,
        "w": 6,
        "x": 18,
        "y": 0
      },
      "hiddenSeries": false,
      "id": 27,
      "legend": {
        "avg": false,
        "current": false,
        "max": false,
        "min": false,
        "show": false,
        "total": false,
        "values": false
      },
      "lines": true,
      "linewidth": 2,
      "nullPointMode": "null",
      "percentage": false,
      "pluginVersion": "7.1.0",
      "pointradius": 2,
      "points": false,
      "renderer": "flot",
      "seriesOverrides": [],
      "spaceLength": 10,
      "stack": false,
      "steppedLine": false,
      "targets": [
        {
          "expr": "sum(irate(request_total{cluster=~\"^($cluster)$\", namespace=~\"^($namespace)$\", pod=~\"^($pod)$\", direction=\"inbound\", tls=\"true\"}[1m])) by (cluster, namespace, pod)",
          "interval": "",
          "legendFormat": "tls {{cluster}} {{namespace}} {{pod}}",
          "refId": "A"
        },
        {
          "expr": "sum(irate(request_total{cluster=~\"^($cluster)$\", namespace=~\"^($namespace)$\", pod=~\"^($pod)$\", direction=\"inbound\", tls!=\"true\"}[1m])) by (cluster, namespace, pod)",
          "interval": "",
          "legendFormat": "!tls {{cluster}} {{namespace}} {{pod}}",
          "refId": "B"
        }
      ],
      "thresholds": [],
      "timeFrom": null,
      "timeRegions": [],
      "timeShift": null,
      "title": "INBOUND REQUEST RATE",
      "tooltip": {
        "shared": true,
        "sort": 2,
        "value_type": "individual"
      },
      "type": "graph",
      "xaxis": {
        "buckets": null,
        "mode": "time",
        "name": null,
        "show": true,
        "values": []
      },
      "yaxes": [
        {
          "format": "rps",
          "label": null,
          "logBase": 1,
          "max": null,
          "min": "0",
          "show": true
        },
        {
          "format": "short",
          "label": null,
          "logBase": 1,
          "max": null,
          "min": null,
          "show": true
        }
      ],
      "yaxis": {
        "align": false,
        "alignLevel": null
      }
    },
    {
      "aliasColors": {},
      "bars": false,
      "dashLength": 10,
      "dashes": false,
      "datasource": "prometheus",
      "fieldConfig": {
        "defaults": {
          "custom": {}
        },
        "overrides": []
      },
      "fill": 1,
      "fillGradient": 0,
      "gridPos": {
        "h": 7,
        "w": 12,
        "x": 0,
        "y": 5
      },
      "hiddenSeries": false,
      "id": 29,
      "legend": {
        "avg": false,
        "current": false,
        "max": false,
        "min": false,
        "show": false,
        "total": false,
        "values": false
      },
      "lines": true,
      "linewidth": 2,
      "nullPointMode": "null",
      "percentage": false,
      "pluginVersion": "7.1.0",
      "pointradius": 2,
      "points": false,
      "renderer": "flot",
      "seriesOverrides": [],
      "spaceLength": 10,
      "stack": false,
      "steppedLine": false,
      "targets": [
        {
          "expr": "histogram_quantile(0.5, sum(irate(response_latency_ms_bucket{cluster=~\"^($cluster)$\", namespace=~\"^($namespace)$\", pod=~\"^($pod)$\", direction=\"inbound\"}[1m])) by (le, cluster, namespace, pod))",
          "interval": "",
          "legendFormat": "p50 {{cluster}} {{namespace}} {{pod}}",
          "refId": "A"
        },
        {
          "expr": "histogram_quantile(0.95, sum(irate(response_latency_ms_bucket{cluster=~\"^($cluster)$\", namespace=~\"^($namespace)$\", pod=~\"^($pod)$\", direction=\"inbound\"}[1m])) by (le, cluster, namespace, pod))",
          "interval": "",
          "legendFormat": "p95 {{cluster}} {{namespace}} {{pod}}",
          "refId": "B"
        },
        {
          "expr": "histogram_quantile(0.99, sum(irate(response_latency_ms_bucket{cluster=~\"^($cluster)$\", namespace=~\"^($namespace)$\", pod=~\"^($pod)$\", direction=\"inbound\"}[1m])) by (le, cluster, namespace, pod))",
          "interval": "",
          "legendFormat": "p99 {{cluster}} {{namespace}} {{pod}}",
          "refId": "C"
        }
      ],
      "thresholds": [],
      "timeFrom": null,
      "timeRegions": [],
      "timeShift": null,
      "title": "LATENCY",
      "tooltip": {
        "shared": true,
        "sort": 2,
        "value_type": "individual"
      },
      "transformations": [
        {
          "id": "filterByRefId",
          "options": {
            "include": "C"
          }
        }
      ],
      "type": "graph",
      "xaxis": {
        "buckets": null,
        "mode": "time",
        "name": null,
        "show": true,
        "values": []
      },
      "yaxes": [
        {
          "format": "ms",
          "label": null,
          "logBase": 1,
          "max": null,
          "min": null,
          "show": true
        },
        {
          "format": "short",
          "label": null,
          "logBase": 1,
          "max": null,
          "min": null,
          "show": true
        }
      ],
      "yaxis": {
        "align": false,
        "alignLevel": null
      }
    },
    {
      "aliasColors": {},
      "bars": true,
      "dashLength": 10,
      "dashes": false,
      "datasource": "prometheus",
      "fieldConfig": {
        "defaults": {
          "custom": {}
        },
        "overrides": [
          {
            "matcher": {
              "id": "byName"
            },
            "properties": []
          }
        ]
      },
      "fill": 1,
      "fillGradient": 0,
      "gridPos": {
        "h": 7,
        "w": 12,
        "x": 12,
        "y": 5
      },
      "hiddenSeries": false,
      "id": 31,
      "legend": {
        "alignAsTable": false,
        "avg": false,
        "current": false,
        "max": false,
        "min": false,
        "rightSide": false,
        "show": false,
        "total": false,
        "values": false
      },
      "lines": true,
      "linewidth": 2,
      "nullPointMode": "null",
      "percentage": false,
      "pluginVersion": "7.1.0",
      "pointradius": 2,
      "points": false,
      "renderer": "flot",
      "seriesOverrides": [],
      "spaceLength": 10,
      "stack": false,
      "steppedLine": false,
      "targets": [
        {
          "expr": "histogram_quantile(0.5, sum(irate(response_latency_ms_bucket{dst_namespace=~\"^($namespace)$\", cluster=~\"^($cluster)$\", dst_pod=~\"^($pod)$\", direction=\"outbound\"}[1m])) by (le, cluster, namespace, pod))",
          "format": "time_series",
          "interval": "",
          "legendFormat": "{{cluster}} {{namespace}} {{pod}}",
          "refId": "A"
        },
        {
          "expr": "histogram_quantile(0.95, sum(irate(response_latency_ms_bucket{dst_namespace=~\"^($namespace)$\", cluster=~\"^($cluster)$\", dst_pod=~\"^($pod)$\", direction=\"outbound\"}[1m])) by (le, cluster, namespace, pod))",
          "interval": "",
          "legendFormat": "{{cluster}} {{namespace}} {{pod}}",
          "refId": "B"
        },
        {
          "expr": "histogram_quantile(0.99, sum(irate(response_latency_ms_bucket{dst_namespace=~\"^($namespace)$\", cluster=~\"^($cluster)$\", dst_pod=~\"^($pod)$\", direction=\"outbound\"}[1m])) by (le, cluster, namespace, pod))",
          "instant": false,
          "interval": "",
          "legendFormat": "{{cluster}} {{namespace}} {{pod}}",
          "refId": "C"
        }
      ],
      "thresholds": [],
      "timeFrom": null,
      "timeRegions": [],
      "timeShift": null,
      "title": "LATENCY to service",
      "tooltip": {
        "shared": true,
        "sort": 2,
        "value_type": "individual"
      },
      "transformations": [
        {
          "id": "filterByRefId",
          "options": {
            "include": "C"
          }
        }
      ],
      "type": "graph",
      "xaxis": {
        "buckets": null,
        "mode": "time",
        "name": null,
        "show": true,
        "values": []
      },
      "yaxes": [
        {
          "format": "ms",
          "label": null,
          "logBase": 1,
          "max": null,
          "min": null,
          "show": true
        },
        {
          "format": "short",
          "label": null,
          "logBase": 1,
          "max": null,
          "min": null,
          "show": true
        }
      ],
      "yaxis": {
        "align": false,
        "alignLevel": null
      }
    },
    {
      "aliasColors": {},
      "bars": false,
      "dashLength": 10,
      "dashes": false,
      "datasource": "prometheus",
      "editable": true,
      "error": false,
      "fieldConfig": {
        "defaults": {
          "custom": {}
        },
        "overrides": []
      },
      "fill": 1,
      "fillGradient": 0,
      "grid": {},
      "gridPos": {
        "h": 8,
        "w": 12,
        "x": 0,
        "y": 12
      },
      "hiddenSeries": false,
      "id": 1,
      "isNew": true,
      "legend": {
        "alignAsTable": true,
        "avg": true,
        "current": true,
        "max": true,
        "min": false,
        "rightSide": false,
        "show": true,
        "sort": "current",
        "sortDesc": true,
        "total": false,
        "values": true
      },
      "lines": true,
      "linewidth": 2,
      "links": [],
      "nullPointMode": "null",
      "options": {
        "alertThreshold": true
      },
      "percentage": false,
      "pluginVersion": "7.1.0",
      "pointradius": 5,
      "points": false,
      "renderer": "flot",
      "seriesOverrides": [
        {
          "alias": "resident",
          "yaxis": 2
        }
      ],
      "spaceLength": 10,
      "stack": false,
      "steppedLine": false,
      "targets": [
        {
          "exemplar": true,
          "expr": "process_resident_memory_bytes{cluster=~\"^($cluster)$\", namespace=~\"^($namespace)$\", pod=~\"^($pod)$\"}",
          "format": "time_series",
          "interval": "",
          "intervalFactor": 2,
          "legendFormat": "Resident {{namespace}} {{pod}}",
          "metric": "process_resident_memory_bytes",
          "refId": "A",
          "step": 4
        },
        {
          "exemplar": true,
          "expr": "process_virtual_memory_bytes{cluster=~\"^($cluster)$\", namespace=~\"^($namespace)$\", pod=~\"^($pod)$\"}",
          "format": "time_series",
          "interval": "",
          "intervalFactor": 2,
          "legendFormat": "Virtual {{namespace}} {{pod}}",
          "metric": "process_virtual_memory_bytes",
          "refId": "B",
          "step": 4
        }
      ],
      "thresholds": [],
      "timeFrom": null,
      "timeRegions": [],
      "timeShift": null,
      "title": "process memory",
      "tooltip": {
        "msResolution": false,
        "shared": true,
        "sort": 2,
        "value_type": "cumulative"
      },
      "transformations": [
        {
          "id": "filterByRefId",
          "options": {
            "include": "A"
          }
        }
      ],
      "type": "graph",
      "xaxis": {
        "buckets": null,
        "mode": "time",
        "name": null,
        "show": true,
        "values": []
      },
      "yaxes": [
        {
          "format": "bytes",
          "label": null,
          "logBase": 1,
          "max": null,
          "min": null,
          "show": true
        },
        {
          "format": "short",
          "label": null,
          "logBase": 1,
          "max": null,
          "min": null,
          "show": true
        }
      ],
      "yaxis": {
        "align": false,
        "alignLevel": null
      }
    },
    {
      "aliasColors": {},
      "bars": true,
      "dashLength": 10,
      "dashes": false,
      "datasource": "prometheus",
      "description": "",
      "fieldConfig": {
        "defaults": {
          "custom": {}
        },
        "overrides": []
      },
      "fill": 1,
      "fillGradient": 0,
      "gridPos": {
        "h": 6,
        "w": 12,
        "x": 12,
        "y": 12
      },
      "hiddenSeries": false,
      "id": 19,
      "legend": {
        "avg": false,
        "current": false,
        "max": false,
        "min": false,
        "show": false,
        "total": false,
        "values": false
      },
      "lines": true,
      "linewidth": 1,
      "nullPointMode": "null as zero",
      "percentage": false,
      "pluginVersion": "7.1.0",
      "pointradius": 2,
      "points": false,
      "renderer": "flot",
      "seriesOverrides": [],
      "spaceLength": 10,
      "stack": false,
      "steppedLine": false,
      "targets": [
        {
          "expr": "histogram_quantile(0.5, sum(irate(eventbus_delivery_duration_bucket{cluster=~\"^($cluster)$\", namespace=~\"^($namespace)$\",pod=~\"^($pod)$\"}[1m])) by (le, cluster, namespace, pod))",
          "interval": "",
          "legendFormat": "p50 {{cluster}} {{namespace}} {{pod}}",
          "refId": "A"
        },
        {
          "expr": "histogram_quantile(0.95, sum(irate(eventbus_delivery_duration_bucket{cluster=~\"^($cluster)$\", namespace=~\"^($namespace)$\",pod=~\"^($pod)$\"}[1m])) by (le, cluster, namespace, pod))",
          "interval": "",
          "legendFormat": "p95 {{cluster}} {{namespace}} {{pod}}",
          "refId": "B"
        },
        {
          "expr": "histogram_quantile(0.99, sum(irate(eventbus_delivery_duration_bucket{cluster=~\"^($cluster)$\", namespace=~\"^($namespace)$\",pod=~\"^($pod)$\"}[1m])) by (le, cluster, namespace, pod))",
          "interval": "",
          "legendFormat": "p99 {{cluster}} {{namespace}} {{pod}}",
          "refId": "C"
        }
      ],
      "thresholds": [],
      "timeFrom": null,
      "timeRegions": [],
      "timeShift": null,
      "title": "Latencies for event delivery to the broker",
      "tooltip": {
        "shared": true,
        "sort": 0,
        "value_type": "individual"
      },
      "transformations": [
        {
          "id": "filterByRefId",
          "options": {
            "include": "C"
          }
        }
      ],
      "type": "graph",
      "xaxis": {
        "buckets": null,
        "mode": "time",
        "name": null,
        "show": true,
        "values": []
      },
      "yaxes": [
        {
          "format": "s",
          "label": null,
          "logBase": 1,
          "max": null,
          "min": null,
          "show": true
        },
        {
          "format": "short",
          "label": null,
          "logBase": 1,
          "max": null,
          "min": null,
          "show": true
        }
      ],
      "yaxis": {
        "align": false,
        "alignLevel": null
      }
    },
    {
      "aliasColors": {},
      "bars": false,
      "dashLength": 10,
      "dashes": false,
      "datasource": "prometheus",
      "editable": true,
      "error": false,
      "fieldConfig": {
        "defaults": {
          "custom": {}
        },
        "overrides": []
      },
      "fill": 1,
      "fillGradient": 0,
      "grid": {},
      "gridPos": {
        "h": 8,
        "w": 12,
        "x": 12,
        "y": 18
      },
      "hiddenSeries": false,
      "id": 4,
      "isNew": true,
      "legend": {
        "alignAsTable": true,
        "avg": true,
        "current": true,
        "max": true,
        "min": false,
        "show": true,
        "sort": "current",
        "sortDesc": true,
        "total": false,
        "values": true
      },
      "lines": true,
      "linewidth": 2,
      "links": [],
      "nullPointMode": "null",
      "options": {
        "alertThreshold": true
      },
      "percentage": false,
      "pluginVersion": "7.1.0",
      "pointradius": 5,
      "points": false,
      "renderer": "flot",
      "seriesOverrides": [
        {
          "alias": "resident",
          "yaxis": 1
        }
      ],
      "spaceLength": 10,
      "stack": false,
      "steppedLine": false,
      "targets": [
        {
          "expr": "rate(process_resident_memory_bytes{cluster=~\"^($cluster)$\", namespace=~\"^($namespace)$\", pod=~\"^($pod)$\"}[$interval])",
          "format": "time_series",
          "interval": "",
          "intervalFactor": 2,
          "legendFormat": "Resident {{cluster}} {{namespace}} {{pod}}",
          "metric": "process_resident_memory_bytes",
          "refId": "A",
          "step": 4
        },
        {
          "expr": "deriv(process_virtual_memory_bytes{cluster=~\"^($cluster)$\", namespace=~\"^($namespace)$\",pod=~\"^($pod)$\"}[$interval])",
          "format": "time_series",
          "interval": "",
          "intervalFactor": 2,
          "legendFormat": "Virtual {{cluster}} {{namespace}} {{pod}}",
          "metric": "process_virtual_memory_bytes",
          "refId": "B",
          "step": 4
        }
      ],
      "thresholds": [],
      "timeFrom": null,
      "timeRegions": [],
      "timeShift": null,
      "title": "process memory deriv",
      "tooltip": {
        "msResolution": false,
        "shared": true,
        "sort": 2,
        "value_type": "cumulative"
      },
      "transformations": [
        {
          "id": "filterByRefId",
          "options": {
            "include": "A"
          }
        }
      ],
      "type": "graph",
      "xaxis": {
        "buckets": null,
        "mode": "time",
        "name": null,
        "show": true,
        "values": []
      },
      "yaxes": [
        {
          "format": "bytes",
          "label": null,
          "logBase": 1,
          "max": null,
          "min": null,
          "show": true
        },
        {
          "format": "short",
          "label": null,
          "logBase": 1,
          "max": null,
          "min": null,
          "show": true
        }
      ],
      "yaxis": {
        "align": false,
        "alignLevel": null
      }
    },
    {
      "aliasColors": {},
      "bars": false,
      "dashLength": 10,
      "dashes": false,
      "datasource": "prometheus",
      "editable": true,
      "error": false,
      "fieldConfig": {
        "defaults": {
          "custom": {}
        },
        "overrides": []
      },
      "fill": 1,
      "fillGradient": 0,
      "grid": {},
      "gridPos": {
        "h": 8,
        "w": 12,
        "x": 0,
        "y": 20
      },
      "hiddenSeries": false,
      "id": 2,
      "isNew": true,
      "legend": {
        "alignAsTable": true,
        "avg": true,
        "current": true,
        "max": true,
        "min": false,
        "show": true,
        "sort": "current",
        "sortDesc": true,
        "total": false,
        "values": true
      },
      "lines": true,
      "linewidth": 2,
      "links": [],
      "nullPointMode": "null",
      "options": {
        "alertThreshold": true
      },
      "percentage": false,
      "pluginVersion": "7.1.0",
      "pointradius": 5,
      "points": false,
      "renderer": "flot",
      "seriesOverrides": [
        {
          "alias": "alloc rate",
          "yaxis": 2
        }
      ],
      "spaceLength": 10,
      "stack": false,
      "steppedLine": false,
      "targets": [
        {
          "expr": "go_memstats_alloc_bytes{cluster=~\"^($cluster)$\", namespace=~\"^($namespace)$\", pod=~\"^($pod)$\"}",
          "format": "time_series",
          "interval": "",
          "intervalFactor": 2,
          "legendFormat": "Bytes allocated {{cluster}} {{namespace}} {{pod}}",
          "metric": "go_memstats_alloc_bytes",
          "refId": "A",
          "step": 4
        },
        {
          "expr": "rate(go_memstats_alloc_bytes_total{cluster=~\"^($cluster)$\", namespace=~\"^($namespace)$\",pod=~\"^($pod)$\"}[30s])",
          "format": "time_series",
          "interval": "",
          "intervalFactor": 2,
          "legendFormat": "Alloc rate {{cluster}} {{namespace}} {{pod}}",
          "metric": "go_memstats_alloc_bytes_total",
          "refId": "B",
          "step": 4
        },
        {
          "expr": "go_memstats_stack_inuse_bytes{cluster=~\"^($cluster)$\", namespace=~\"^($namespace)$\",pod=~\"^($pod)$\"}",
          "format": "time_series",
          "interval": "",
          "intervalFactor": 2,
          "legendFormat": "Stack inuse {{cluster}} {{namespace}} {{pod}}",
          "metric": "go_memstats_stack_inuse_bytes",
          "refId": "C",
          "step": 4
        },
        {
          "expr": "go_memstats_heap_inuse_bytes{cluster=~\"^($cluster)$\", namespace=~\"^($namespace)$\",pod=~\"^($pod)$\"}",
          "format": "time_series",
          "hide": false,
          "interval": "",
          "intervalFactor": 2,
          "legendFormat": "Heap inuse {{cluster}} {{namespace}} {{pod}}",
          "metric": "go_memstats_heap_inuse_bytes",
          "refId": "D",
          "step": 4
        }
      ],
      "thresholds": [],
      "timeFrom": null,
      "timeRegions": [],
      "timeShift": null,
      "title": "go memstats",
      "tooltip": {
        "msResolution": false,
        "shared": true,
        "sort": 2,
        "value_type": "cumulative"
      },
      "type": "graph",
      "xaxis": {
        "buckets": null,
        "mode": "time",
        "name": null,
        "show": true,
        "values": []
      },
      "yaxes": [
        {
          "format": "bytes",
          "label": null,
          "logBase": 1,
          "max": null,
          "min": null,
          "show": true
        },
        {
          "format": "Bps",
          "label": null,
          "logBase": 1,
          "max": null,
          "min": null,
          "show": true
        }
      ],
      "yaxis": {
        "align": false,
        "alignLevel": null
      }
    },
    {
      "aliasColors": {},
      "bars": false,
      "dashLength": 10,
      "dashes": false,
      "datasource": "prometheus",
      "editable": true,
      "error": false,
      "fieldConfig": {
        "defaults": {
          "custom": {}
        },
        "overrides": []
      },
      "fill": 1,
      "fillGradient": 0,
      "grid": {},
      "gridPos": {
        "h": 7,
        "w": 12,
        "x": 12,
        "y": 26
      },
      "hiddenSeries": false,
      "id": 5,
      "isNew": true,
      "legend": {
        "alignAsTable": true,
        "avg": true,
        "current": true,
        "max": true,
        "min": false,
        "show": true,
        "sort": "current",
        "sortDesc": true,
        "total": false,
        "values": true
      },
      "lines": true,
      "linewidth": 2,
      "links": [],
      "nullPointMode": "null",
      "options": {
        "alertThreshold": true
      },
      "percentage": false,
      "pluginVersion": "7.1.0",
      "pointradius": 5,
      "points": false,
      "renderer": "flot",
      "seriesOverrides": [
        {
          "alias": "alloc rate",
          "yaxis": 2
        }
      ],
      "spaceLength": 10,
      "stack": false,
      "steppedLine": false,
      "targets": [
        {
          "expr": "deriv(go_memstats_alloc_bytes{cluster=~\"^($cluster)$\", namespace=~\"^($namespace)$\", pod=~\"^($pod)$\"}[$interval])",
          "format": "time_series",
          "interval": "",
          "intervalFactor": 2,
          "legendFormat": "Bytes allocated {{cluster}} {{namespace}} {{pod}}",
          "metric": "go_memstats_alloc_bytes",
          "refId": "A",
          "step": 4
        },
        {
          "expr": "rate(go_memstats_alloc_bytes_total{cluster=~\"^($cluster)$\", namespace=~\"^($namespace)$\", pod=~\"^($pod)$\"}[$interval])",
          "format": "time_series",
          "interval": "",
          "intervalFactor": 2,
          "legendFormat": "Alloc rate {{cluster}} {{namespace}} {{pod}}",
          "metric": "go_memstats_alloc_bytes_total",
          "refId": "B",
          "step": 4
        },
        {
          "expr": "deriv(go_memstats_stack_inuse_bytes{cluster=~\"^($cluster)$\", namespace=~\"^($namespace)$\", pod=~\"^($pod)$\"}[$interval])",
          "format": "time_series",
          "interval": "",
          "intervalFactor": 2,
          "legendFormat": "Stack inuse {{cluster}} {{namespace}} {{pod}}",
          "metric": "go_memstats_stack_inuse_bytes",
          "refId": "C",
          "step": 4
        },
        {
          "expr": "deriv(go_memstats_heap_inuse_bytes{cluster=~\"^($cluster)$\", namespace=~\"^($namespace)$\", pod=~\"^($pod)$\"}[$interval])",
          "format": "time_series",
          "hide": false,
          "interval": "",
          "intervalFactor": 2,
          "legendFormat": "Heap inuse {{cluster}} {{namespace}} {{pod}}",
          "metric": "go_memstats_heap_inuse_bytes",
          "refId": "D",
          "step": 4
        }
      ],
      "thresholds": [],
      "timeFrom": null,
      "timeRegions": [],
      "timeShift": null,
      "title": "go memstats deriv",
      "tooltip": {
        "msResolution": false,
        "shared": true,
        "sort": 2,
        "value_type": "cumulative"
      },
      "type": "graph",
      "xaxis": {
        "buckets": null,
        "mode": "time",
        "name": null,
        "show": true,
        "values": []
      },
      "yaxes": [
        {
          "format": "bytes",
          "label": null,
          "logBase": 1,
          "max": null,
          "min": null,
          "show": true
        },
        {
          "format": "Bps",
          "label": null,
          "logBase": 1,
          "max": null,
          "min": null,
          "show": true
        }
      ],
      "yaxis": {
        "align": false,
        "alignLevel": null
      }
    },
    {
      "aliasColors": {},
      "bars": false,
      "dashLength": 10,
      "dashes": false,
      "datasource": "prometheus",
      "editable": true,
      "error": false,
      "fieldConfig": {
        "defaults": {
          "custom": {}
        },
        "overrides": []
      },
      "fill": 1,
      "fillGradient": 0,
      "grid": {},
      "gridPos": {
        "h": 7,
        "w": 12,
        "x": 0,
        "y": 28
      },
      "hiddenSeries": false,
      "id": 3,
      "isNew": true,
      "legend": {
        "alignAsTable": true,
        "avg": true,
        "current": true,
        "max": true,
        "min": false,
        "show": true,
        "sort": "current",
        "sortDesc": true,
        "total": false,
        "values": true
      },
      "lines": true,
      "linewidth": 2,
      "links": [],
      "nullPointMode": "null",
      "options": {
        "alertThreshold": true
      },
      "percentage": false,
      "pluginVersion": "7.1.0",
      "pointradius": 5,
      "points": false,
      "renderer": "flot",
      "seriesOverrides": [],
      "spaceLength": 10,
      "stack": false,
      "steppedLine": false,
      "targets": [
        {
          "expr": "process_open_fds{cluster=~\"^($cluster)$\", namespace=~\"^($namespace)$\", pod=~\"^($pod)$\"}",
          "format": "time_series",
          "interval": "",
          "intervalFactor": 2,
          "legendFormat": "{{cluster}} {{namespace}} {{pod}}",
          "metric": "process_open_fds",
          "refId": "A",
          "step": 4
        }
      ],
      "thresholds": [],
      "timeFrom": null,
      "timeRegions": [],
      "timeShift": null,
      "title": "open fds",
      "tooltip": {
        "msResolution": false,
        "shared": true,
        "sort": 2,
        "value_type": "cumulative"
      },
      "type": "graph",
      "xaxis": {
        "buckets": null,
        "mode": "time",
        "name": null,
        "show": true,
        "values": []
      },
      "yaxes": [
        {
          "format": "short",
          "label": null,
          "logBase": 1,
          "max": null,
          "min": null,
          "show": true
        },
        {
          "format": "short",
          "label": null,
          "logBase": 1,
          "max": null,
          "min": null,
          "show": true
        }
      ],
      "yaxis": {
        "align": false,
        "alignLevel": null
      }
    },
    {
      "aliasColors": {},
      "bars": false,
      "dashLength": 10,
      "dashes": false,
      "datasource": "prometheus",
      "editable": true,
      "error": false,
      "fieldConfig": {
        "defaults": {
          "custom": {}
        },
        "overrides": []
      },
      "fill": 1,
      "fillGradient": 0,
      "grid": {},
      "gridPos": {
        "h": 7,
        "w": 12,
        "x": 12,
        "y": 33
      },
      "hiddenSeries": false,
      "id": 6,
      "isNew": true,
      "legend": {
        "alignAsTable": true,
        "avg": true,
        "current": true,
        "max": true,
        "min": false,
        "show": true,
        "sort": "current",
        "sortDesc": true,
        "total": false,
        "values": true
      },
      "lines": true,
      "linewidth": 2,
      "links": [],
      "nullPointMode": "connected",
      "options": {
        "alertThreshold": true
      },
      "percentage": false,
      "pluginVersion": "7.1.0",
      "pointradius": 5,
      "points": false,
      "renderer": "flot",
      "seriesOverrides": [],
      "spaceLength": 10,
      "stack": false,
      "steppedLine": false,
      "targets": [
        {
          "expr": "deriv(process_open_fds{cluster=~\"^($cluster)$\", namespace=~\"^($namespace)$\", pod=~\"^($pod)$\"}[$interval])",
          "format": "time_series",
          "interval": "",
          "intervalFactor": 2,
          "legendFormat": "{{cluster}} {{namespace}} {{pod}}",
          "metric": "process_open_fds",
          "refId": "A",
          "step": 4
        }
      ],
      "thresholds": [],
      "timeFrom": null,
      "timeRegions": [],
      "timeShift": null,
      "title": "open fds deriv",
      "tooltip": {
        "msResolution": false,
        "shared": true,
        "sort": 2,
        "value_type": "cumulative"
      },
      "type": "graph",
      "xaxis": {
        "buckets": null,
        "mode": "time",
        "name": null,
        "show": true,
        "values": []
      },
      "yaxes": [
        {
          "format": "short",
          "label": null,
          "logBase": 1,
          "max": null,
          "min": null,
          "show": true
        },
        {
          "format": "short",
          "label": null,
          "logBase": 1,
          "max": null,
          "min": null,
          "show": true
        }
      ],
      "yaxis": {
        "align": false,
        "alignLevel": null
      }
    },
    {
      "aliasColors": {},
      "bars": false,
      "dashLength": 10,
      "dashes": false,
      "datasource": "prometheus",
      "editable": true,
      "error": false,
      "fieldConfig": {
        "defaults": {
          "custom": {}
        },
        "overrides": []
      },
      "fill": 1,
      "fillGradient": 0,
      "grid": {},
      "gridPos": {
        "h": 7,
        "w": 12,
        "x": 0,
        "y": 35
      },
      "hiddenSeries": false,
      "id": 7,
      "isNew": true,
      "legend": {
        "alignAsTable": true,
        "avg": true,
        "current": true,
        "max": true,
        "min": false,
        "show": true,
        "sort": "current",
        "sortDesc": true,
        "total": false,
        "values": true
      },
      "lines": true,
      "linewidth": 2,
      "links": [],
      "nullPointMode": "null",
      "options": {
        "alertThreshold": true
      },
      "percentage": false,
      "pluginVersion": "7.1.0",
      "pointradius": 5,
      "points": false,
      "renderer": "flot",
      "seriesOverrides": [],
      "spaceLength": 10,
      "stack": false,
      "steppedLine": false,
      "targets": [
        {
          "expr": "go_goroutines{cluster=~\"^($cluster)$\", namespace=~\"^($namespace)$\", pod=~\"^($pod)$\"}",
          "format": "time_series",
          "interval": "",
          "intervalFactor": 2,
          "legendFormat": "{{cluster}} {{namespace}} {{pod}}",
          "metric": "go_goroutines",
          "refId": "A",
          "step": 4
        }
      ],
      "thresholds": [],
      "timeFrom": null,
      "timeRegions": [],
      "timeShift": null,
      "title": "Goroutines",
      "tooltip": {
        "msResolution": false,
        "shared": true,
        "sort": 2,
        "value_type": "cumulative"
      },
      "type": "graph",
      "xaxis": {
        "buckets": null,
        "mode": "time",
        "name": null,
        "show": true,
        "values": []
      },
      "yaxes": [
        {
          "format": "short",
          "label": null,
          "logBase": 1,
          "max": null,
          "min": null,
          "show": true
        },
        {
          "format": "short",
          "label": null,
          "logBase": 1,
          "max": null,
          "min": null,
          "show": true
        }
      ],
      "yaxis": {
        "align": false,
        "alignLevel": null
      }
    },
    {
      "aliasColors": {},
      "bars": false,
      "dashLength": 10,
      "dashes": false,
      "datasource": "prometheus",
      "editable": true,
      "error": false,
      "fieldConfig": {
        "defaults": {
          "custom": {}
        },
        "overrides": []
      },
      "fill": 1,
      "fillGradient": 0,
      "grid": {},
      "gridPos": {
        "h": 12,
        "w": 12,
        "x": 12,
        "y": 40
      },
      "hiddenSeries": false,
      "id": 8,
      "isNew": true,
      "legend": {
        "alignAsTable": true,
        "avg": true,
        "current": true,
        "max": true,
        "min": false,
        "rightSide": false,
        "show": true,
        "sort": "current",
        "sortDesc": true,
        "total": false,
        "values": true
      },
      "lines": true,
      "linewidth": 2,
      "links": [],
      "nullPointMode": "null",
      "options": {
        "alertThreshold": true
      },
      "percentage": false,
      "pluginVersion": "7.1.0",
      "pointradius": 5,
      "points": false,
      "renderer": "flot",
      "seriesOverrides": [],
      "spaceLength": 10,
      "stack": false,
      "steppedLine": false,
      "targets": [
        {
          "expr": "go_gc_duration_seconds{quantile=~\"1\", cluster=~\"^($cluster)$\", namespace=~\"^($namespace)$\", pod=~\"^($pod)$\"}",
          "format": "time_series",
          "interval": "",
          "intervalFactor": 2,
          "legendFormat": "{{cluster}} {{namespace}} {{pod}} quantile",
          "metric": "go_gc_duration_seconds",
          "refId": "A",
          "step": 4
        }
      ],
      "thresholds": [],
      "timeFrom": null,
      "timeRegions": [],
      "timeShift": null,
      "title": "GC duration quantiles",
      "tooltip": {
        "msResolution": false,
        "shared": true,
        "sort": 2,
        "value_type": "cumulative"
      },
      "type": "graph",
      "xaxis": {
        "buckets": null,
        "mode": "time",
        "name": null,
        "show": true,
        "values": []
      },
      "yaxes": [
        {
          "format": "s",
          "label": null,
          "logBase": 1,
          "max": null,
          "min": null,
          "show": true
        },
        {
          "format": "short",
          "label": null,
          "logBase": 1,
          "max": null,
          "min": null,
          "show": true
        }
      ],
      "yaxis": {
        "align": false,
        "alignLevel": null
      }
    },
    {
      "aliasColors": {},
      "bars": true,
      "dashLength": 10,
      "dashes": false,
      "datasource": "prometheus",
      "editable": true,
      "error": false,
      "fieldConfig": {
        "defaults": {
          "custom": {}
        },
        "overrides": []
      },
      "fill": 1,
      "fillGradient": 0,
      "grid": {},
      "gridPos": {
        "h": 10,
        "w": 12,
        "x": 0,
        "y": 42
      },
      "hiddenSeries": false,
      "id": 9,
      "isNew": true,
      "legend": {
        "alignAsTable": true,
        "avg": true,
        "current": true,
        "max": true,
        "min": false,
        "show": true,
        "sort": "avg",
        "sortDesc": true,
        "total": false,
        "values": true
      },
      "lines": true,
      "linewidth": 2,
      "links": [],
      "nullPointMode": "null",
      "options": {
        "alertThreshold": true
      },
      "percentage": false,
      "pluginVersion": "7.1.0",
      "pointradius": 5,
      "points": true,
      "renderer": "flot",
      "seriesOverrides": [],
      "spaceLength": 10,
      "stack": false,
      "steppedLine": false,
      "targets": [
        {
          "expr": "histogram_quantile(0.5, sum(irate(http_server_request_duration_seconds_bucket{cluster=~\"^($cluster)$\", namespace=~\"^($namespace)$\", pod=~\"^($pod)$\"}[1m])) by (le, cluster, namespace, pod))",
          "format": "time_series",
          "interval": "",
          "intervalFactor": 2,
          "legendFormat": "p50 {{cluster}} {{namespace}} {{pod}}",
          "metric": "http_server_request_duration_seconds_bucket",
          "refId": "A",
          "step": 4
        },
        {
          "expr": "histogram_quantile(0.95, sum(irate(http_server_request_duration_seconds_bucket{cluster=~\"^($cluster)$\", namespace=~\"^($namespace)$\",pod=~\"^($pod)$\"}[1m])) by (le, cluster, namespace, pod))",
          "interval": "",
          "legendFormat": "p95 {{cluster}} {{namespace}} {{pod}}",
          "refId": "B"
        },
        {
          "expr": "histogram_quantile(0.99, sum(irate(http_server_request_duration_seconds_bucket{cluster=~\"^($cluster)$\", namespace=~\"^($namespace)$\",pod=~\"^($pod)$\"}[1m])) by (le, cluster, namespace, pod))",
          "interval": "",
          "legendFormat": "p99 {{cluster}} {{namespace}} {{pod}}",
          "refId": "C"
        }
      ],
      "thresholds": [],
      "timeFrom": null,
      "timeRegions": [],
      "timeShift": null,
      "title": "http_server_request_duration",
      "tooltip": {
        "msResolution": false,
        "shared": true,
        "sort": 2,
        "value_type": "cumulative"
      },
      "transformations": [
        {
          "id": "filterByRefId",
          "options": {
            "include": "C"
          }
        }
      ],
      "type": "graph",
      "xaxis": {
        "buckets": null,
        "mode": "time",
        "name": null,
        "show": true,
        "values": []
      },
      "yaxes": [
        {
          "format": "s",
          "label": null,
          "logBase": 1,
          "max": null,
          "min": "0",
          "show": true
        },
        {
          "format": "short",
          "label": null,
          "logBase": 1,
          "max": null,
          "min": null,
          "show": true
        }
      ],
      "yaxis": {
        "align": false,
        "alignLevel": null
      }
    }
  ],
  "refresh": false,
  "schemaVersion": 26,
  "style": "dark",
  "tags": [],
  "templating": {
    "list": [
      {
        "allValue": null,
        "current": {
          "selected": false,
          "text": "elma",
          "value": "elma"
        },
        "datasource": "prometheus",
        "definition": "label_values(up, region)",
        "description": null,
        "error": null,
        "hide": 0,
        "includeAll": false,
        "label": "cluster",
        "multi": false,
        "name": "cluster",
        "options": [],
        "query": "label_values(up, region)",
        "refresh": 1,
        "regex": "",
        "skipUrlSync": false,
        "sort": 0,
        "tagValuesQuery": "",
        "tags": [],
        "tagsQuery": "",
        "type": "query",
        "useTags": false
      },
      {
        "allValue": ".*",
        "current": {
          "selected": false,
          "text": "All",
          "value": "$__all"
        },
        "datasource": "prometheus",
        "definition": "query_result(up{job=~\"main\",cluster=~\"$cluster\"})",
        "description": null,
        "error": null,
        "hide": 0,
        "includeAll": true,
        "label": null,
        "multi": true,
        "name": "namespace",
        "options": [],
        "query": "query_result(up{job=~\"main\",cluster=~\"$cluster\"})",
        "refresh": 2,
        "regex": "/.namespace=\"([^\"]+)./",
        "skipUrlSync": false,
        "sort": 0,
        "tagValuesQuery": "",
        "tags": [],
        "tagsQuery": "",
        "type": "query",
        "useTags": false
      },
      {
        "allValue": "main-.*",
        "current": {
          "selected": true,
          "text": "All",
          "value": [
            "$__all"
          ]
        },
        "datasource": "prometheus",
        "definition": "query_result(up{job=~\"main\",cluster=~\"$cluster\",namespace=~\"$namespace\"})",
        "description": null,
        "error": null,
        "hide": 0,
        "includeAll": true,
        "label": null,
        "multi": true,
        "name": "pod",
        "options": [],
        "query": "query_result(up{job=~\"main\",cluster=~\"$cluster\",namespace=~\"$namespace\"})",
        "refresh": 2,
        "regex": "/.pod=\"([^\"]+)./",
        "skipUrlSync": false,
        "sort": 0,
        "tagValuesQuery": "",
        "tags": [],
        "tagsQuery": "",
        "type": "query",
        "useTags": false
      },
      {
        "auto": false,
        "auto_count": 30,
        "auto_min": "10s",
        "current": {
          "selected": false,
          "text": "5m",
          "value": "5m"
        },
        "datasource": null,
        "description": null,
        "error": null,
        "hide": 0,
        "includeAll": false,
        "label": "",
        "multi": false,
        "name": "interval",
        "options": [
          {
            "selected": false,
            "text": "1m",
            "value": "1m"
          },
          {
            "selected": true,
            "text": "5m",
            "value": "5m"
          },
          {
            "selected": false,
            "text": "10m",
            "value": "10m"
          },
          {
            "selected": false,
            "text": "30m",
            "value": "30m"
          },
          {
            "selected": false,
            "text": "1h",
            "value": "1h"
          }
        ],
        "query": "1m,5m,10m,30m,1h",
        "refresh": 2,
        "skipUrlSync": false,
        "type": "interval"
      }
    ]
  },
  "time": {
    "from": "now-24h",
    "to": "now"
  },
  "timepicker": {
    "refresh_intervals": [
      "10s",
      "30s",
      "1m",
      "5m",
      "15m",
      "30m",
      "1h",
      "2h",
      "1d"
    ],
    "time_options": [
      "5m",
      "15m",
      "1h",
      "6h",
      "12h",
      "24h",
      "2d",
      "7d",
      "30d"
    ]
  },
  "timezone": "browser",
  "title": "main dashboard",
  "version": 1
}