{
    "annotations": {
      "list": [
        {
          "builtIn": 1,
          "datasource": {
            "type": "datasource",
            "uid": "grafana"
          },
          "enable": true,
          "hide": true,
          "iconColor": "rgba(0, 211, 255, 1)",
          "name": "Annotations & Alerts",
          "target": {
            "limit": 100,
            "matchAny": false,
            "tags": [],
            "type": "dashboard"
          },
          "type": "dashboard"
        }
      ]
    },
    "description": "",
    "editable": true,
    "fiscalYearStartMonth": 0,
    "gnetId": 6671,
    "graphTooltip": 1,
    "id": 22,
    "links": [],
    "liveNow": false,
    "panels": [
      {
        "aliasColors": {},
        "bars": false,
        "dashLength": 10,
        "dashes": false,
        "datasource": {
          "type": "prometheus",
          "uid": "prometheus"
        },
        "fieldConfig": {
          "defaults": {
            "unit": "short"
          },
          "overrides": []
        },
        "fill": 1,
        "fillGradient": 0,
        "gridPos": {
          "h": 6,
          "w": 13,
          "x": 0,
          "y": 0
        },
        "hiddenSeries": false,
        "id": 45,
        "interval": "",
        "legend": {
          "alignAsTable": true,
          "avg": true,
          "current": false,
          "hideZero": true,
          "max": true,
          "min": false,
          "rightSide": true,
          "show": true,
          "sort": "total",
          "sortDesc": true,
          "total": true,
          "values": true
        },
        "lines": true,
        "linewidth": 1,
        "nullPointMode": "null",
        "options": {
          "alertThreshold": false
        },
        "percentage": false,
        "pluginVersion": "9.3.1",
        "pointradius": 2,
        "points": false,
        "renderer": "flot",
        "seriesOverrides": [],
        "spaceLength": 10,
        "stack": false,
        "steppedLine": false,
        "targets": [
          {
            "datasource": {
              "type": "prometheus",
              "uid": "prometheus"
            },
            "expr": "topk(5, sum(\r\n    increase(worker_execute_scripts_total{cluster=~\"^($cluster)$\", namespace=~\"^($namespace)$\", company=~\"^($company)$\"}[$interval])\r\n) by (namespace, company, source))",
            "interval": "$interval",
            "legendFormat": "{{namespace}} {{company}} {{source}}",
            "refId": "A"
          },
          {
            "datasource": {
              "type": "prometheus",
              "uid": "prometheus"
            },
            "expr": "topk(5, sum by (namespace, company) (increase(worker_execute_scripts_total{cluster=~\"^($cluster)$\", namespace=~\"^($namespace)$\", company=~\"^($company)$\"}[$interval])))",
            "interval": "$interval",
            "legendFormat": "{{namespace}} {{company}} ALL",
            "refId": "B"
          }
        ],
        "thresholds": [],
        "timeRegions": [],
        "title": "active scripts / $interval - top 5",
        "tooltip": {
          "shared": true,
          "sort": 2,
          "value_type": "individual"
        },
        "type": "graph",
        "xaxis": {
          "mode": "time",
          "show": true,
          "values": []
        },
        "yaxes": [
          {
            "$$hashKey": "object:27",
            "format": "short",
            "logBase": 1,
            "show": true
          },
          {
            "$$hashKey": "object:28",
            "format": "short",
            "logBase": 1,
            "show": true
          }
        ],
        "yaxis": {
          "align": false
        }
      },
      {
        "aliasColors": {},
        "bars": false,
        "dashLength": 10,
        "dashes": false,
        "datasource": {
          "type": "prometheus",
          "uid": "prometheus"
        },
        "fieldConfig": {
          "defaults": {
            "unit": "short"
          },
          "overrides": []
        },
        "fill": 1,
        "fillGradient": 0,
        "gridPos": {
          "h": 6,
          "w": 11,
          "x": 13,
          "y": 0
        },
        "hiddenSeries": false,
        "id": 59,
        "interval": "",
        "legend": {
          "alignAsTable": true,
          "avg": true,
          "current": false,
          "hideZero": true,
          "max": true,
          "min": false,
          "rightSide": true,
          "show": true,
          "sort": "total",
          "sortDesc": true,
          "total": true,
          "values": true
        },
        "lines": true,
        "linewidth": 1,
        "nullPointMode": "null",
        "options": {
          "alertThreshold": false
        },
        "percentage": false,
        "pluginVersion": "9.3.1",
        "pointradius": 2,
        "points": false,
        "renderer": "flot",
        "seriesOverrides": [],
        "spaceLength": 10,
        "stack": false,
        "steppedLine": false,
        "targets": [
          {
            "datasource": {
              "type": "prometheus",
              "uid": "prometheus"
            },
            "expr": "sum by (namespace, source) (increase(worker_execute_scripts_total{cluster=~\"^($cluster)$\", namespace=~\"^($namespace)$\"}[$interval]))",
            "interval": "$interval",
            "legendFormat": "{{namespace}} {{source}} - TOTAL",
            "refId": "C"
          },
          {
            "datasource": {
              "type": "prometheus",
              "uid": "prometheus"
            },
            "expr": "sum by (namespace) (increase(worker_execute_scripts_total{cluster=~\"^($cluster)$\", namespace=~\"^($namespace)$\"}[$interval]))",
            "interval": "$interval",
            "legendFormat": "{{namespace}} - TOTAL",
            "refId": "A"
          }
        ],
        "thresholds": [],
        "timeRegions": [],
        "title": "total scripts / $interval",
        "tooltip": {
          "shared": true,
          "sort": 2,
          "value_type": "individual"
        },
        "type": "graph",
        "xaxis": {
          "mode": "time",
          "show": true,
          "values": []
        },
        "yaxes": [
          {
            "$$hashKey": "object:27",
            "format": "short",
            "logBase": 1,
            "show": true
          },
          {
            "$$hashKey": "object:28",
            "format": "short",
            "logBase": 1,
            "show": true
          }
        ],
        "yaxis": {
          "align": false
        }
      },
      {
        "aliasColors": {},
        "bars": false,
        "dashLength": 10,
        "dashes": false,
        "datasource": {
          "type": "prometheus",
          "uid": "prometheus"
        },
        "fill": 1,
        "fillGradient": 0,
        "gridPos": {
          "h": 6,
          "w": 13,
          "x": 0,
          "y": 6
        },
        "hiddenSeries": false,
        "id": 56,
        "legend": {
          "alignAsTable": true,
          "avg": false,
          "current": true,
          "max": true,
          "min": false,
          "rightSide": true,
          "show": true,
          "sort": "max",
          "sortDesc": true,
          "total": false,
          "values": true
        },
        "lines": true,
        "linewidth": 1,
        "nullPointMode": "null as zero",
        "options": {
          "alertThreshold": true
        },
        "percentage": false,
        "pluginVersion": "9.3.1",
        "pointradius": 2,
        "points": false,
        "renderer": "flot",
        "seriesOverrides": [],
        "spaceLength": 10,
        "stack": false,
        "steppedLine": false,
        "targets": [
          {
            "datasource": {
              "type": "prometheus",
              "uid": "prometheus"
            },
            "expr": "rabbitmq_queue_messages_ready{queue=\"script.default\"}",
            "interval": "",
            "legendFormat": "ready - {{vhost}} | {{queue}}",
            "refId": "A"
          },
          {
            "datasource": {
              "type": "prometheus",
              "uid": "prometheus"
            },
            "expr": "rabbitmq_queue_messages{queue=\"script.default\"}",
            "interval": "",
            "legendFormat": "all - {{vhost}} | {{queue}}",
            "refId": "B"
          }
        ],
        "thresholds": [
          {
            "$$hashKey": "object:517",
            "colorMode": "warning",
            "fill": false,
            "line": true,
            "op": "gt",
            "value": 100,
            "yaxis": "left"
          },
          {
            "$$hashKey": "object:523",
            "colorMode": "critical",
            "fill": false,
            "line": true,
            "op": "gt",
            "value": 200,
            "yaxis": "left"
          }
        ],
        "timeRegions": [],
        "title": "script queue ready",
        "tooltip": {
          "shared": true,
          "sort": 2,
          "value_type": "individual"
        },
        "type": "graph",
        "xaxis": {
          "mode": "time",
          "show": true,
          "values": []
        },
        "yaxes": [
          {
            "format": "short",
            "logBase": 1,
            "show": true
          },
          {
            "format": "short",
            "logBase": 1,
            "show": true
          }
        ],
        "yaxis": {
          "align": false
        }
      },
      {
        "aliasColors": {},
        "bars": false,
        "dashLength": 10,
        "dashes": false,
        "datasource": {
          "type": "prometheus",
          "uid": "prometheus"
        },
        "description": "",
        "fill": 1,
        "fillGradient": 0,
        "gridPos": {
          "h": 6,
          "w": 11,
          "x": 13,
          "y": 6
        },
        "hiddenSeries": false,
        "id": 58,
        "legend": {
          "alignAsTable": true,
          "avg": false,
          "current": true,
          "max": true,
          "min": true,
          "rightSide": true,
          "show": true,
          "sort": "current",
          "sortDesc": true,
          "total": false,
          "values": true
        },
        "lines": true,
        "linewidth": 1,
        "nullPointMode": "null",
        "options": {
          "alertThreshold": false
        },
        "percentage": false,
        "pluginVersion": "9.3.1",
        "pointradius": 2,
        "points": false,
        "renderer": "flot",
        "seriesOverrides": [],
        "spaceLength": 10,
        "stack": false,
        "steppedLine": true,
        "targets": [
          {
            "$$hashKey": "object:628",
            "aggregation": "Last",
            "datasource": {
              "type": "prometheus",
              "uid": "prometheus"
            },
            "decimals": 2,
            "displayAliasType": "Warning / Critical",
            "displayType": "Regular",
            "displayValueWithAlias": "Never",
            "expr": "sum by (cluster, namespace) (worker_forks_total)",
            "interval": "",
            "legendFormat": "FORKs {{namespace}}",
            "refId": "B",
            "units": "none",
            "valueHandler": "Number Threshold"
          },
          {
            "$$hashKey": "object:629",
            "aggregation": "Last",
            "datasource": {
              "type": "prometheus",
              "uid": "prometheus"
            },
            "decimals": 2,
            "displayAliasType": "Warning / Critical",
            "displayType": "Regular",
            "displayValueWithAlias": "Never",
            "expr": "sum by (cluster, namespace) (up{job=\"worker\"})",
            "interval": "",
            "legendFormat": "PODs {{namespace}}",
            "refId": "A",
            "units": "none",
            "valueHandler": "Number Threshold"
          }
        ],
        "thresholds": [],
        "timeRegions": [],
        "title": "forks / pods",
        "tooltip": {
          "shared": true,
          "sort": 2,
          "value_type": "individual"
        },
        "type": "graph",
        "xaxis": {
          "mode": "time",
          "show": true,
          "values": []
        },
        "yaxes": [
          {
            "format": "short",
            "logBase": 1,
            "show": true
          },
          {
            "format": "short",
            "logBase": 1,
            "show": true
          }
        ],
        "yaxis": {
          "align": false
        }
      },
      {
        "datasource": {
          "type": "prometheus",
          "uid": "prometheus"
        },
        "fieldConfig": {
          "defaults": {
            "mappings": [],
            "noValue": "0",
            "thresholds": {
              "mode": "absolute",
              "steps": [
                {
                  "color": "green",
                  "value": null
                },
                {
                  "color": "#EAB839",
                  "value": 2
                },
                {
                  "color": "dark-red",
                  "value": 5
                }
              ]
            }
          },
          "overrides": []
        },
        "gridPos": {
          "h": 6,
          "w": 6,
          "x": 0,
          "y": 12
        },
        "id": 52,
        "interval": "",
        "options": {
          "colorMode": "value",
          "graphMode": "area",
          "justifyMode": "auto",
          "orientation": "auto",
          "reduceOptions": {
            "calcs": [
              "last"
            ],
            "fields": "",
            "values": false
          },
          "textMode": "value"
        },
        "pluginVersion": "9.3.1",
        "targets": [
          {
            "datasource": {
              "type": "prometheus",
              "uid": "prometheus"
            },
            "expr": "sum (\r\n  increase(worker_execution_unknown_errors_total{cluster=~\"^($cluster)$\", namespace=~\"^($namespace)$\", pod=~\"^($pod)$\", company=~\"^($company)$\"}[$__range])\r\n) by (namespace, company) > 0",
            "instant": false,
            "interval": "",
            "legendFormat": "",
            "refId": "B"
          }
        ],
        "title": "unknown errors",
        "type": "stat"
      },
      {
        "datasource": {
          "type": "prometheus",
          "uid": "prometheus"
        },
        "fieldConfig": {
          "defaults": {
            "mappings": [],
            "noValue": "0",
            "thresholds": {
              "mode": "absolute",
              "steps": [
                {
                  "color": "green",
                  "value": null
                },
                {
                  "color": "#EAB839",
                  "value": 2
                },
                {
                  "color": "dark-red",
                  "value": 5
                }
              ]
            }
          },
          "overrides": []
        },
        "gridPos": {
          "h": 6,
          "w": 3,
          "x": 6,
          "y": 12
        },
        "id": 37,
        "options": {
          "colorMode": "value",
          "graphMode": "area",
          "justifyMode": "auto",
          "orientation": "auto",
          "reduceOptions": {
            "calcs": [
              "sum"
            ],
            "fields": "",
            "values": false
          },
          "textMode": "value"
        },
        "pluginVersion": "9.3.1",
        "targets": [
          {
            "datasource": {
              "type": "prometheus",
              "uid": "prometheus"
            },
            "expr": "sum(\r\n    increase(worker_compilation_errors_total{cluster=~\"^($cluster)$\", namespace=~\"^($namespace)$\", pod=~\"^($pod)$\", company=~\"^($company)$\"}[$__rate_interval])\r\n) by (namespace, company) > 0",
            "hide": false,
            "interval": "",
            "legendFormat": "",
            "refId": "A"
          }
        ],
        "title": "compilation errors",
        "type": "stat"
      },
      {
        "datasource": {
          "type": "prometheus",
          "uid": "prometheus"
        },
        "fieldConfig": {
          "defaults": {
            "mappings": [],
            "noValue": "0",
            "thresholds": {
              "mode": "absolute",
              "steps": [
                {
                  "color": "green",
                  "value": null
                },
                {
                  "color": "#EAB839",
                  "value": 2
                },
                {
                  "color": "dark-red",
                  "value": 5
                }
              ]
            }
          },
          "overrides": []
        },
        "gridPos": {
          "h": 6,
          "w": 6,
          "x": 9,
          "y": 12
        },
        "id": 39,
        "options": {
          "colorMode": "value",
          "graphMode": "area",
          "justifyMode": "auto",
          "orientation": "auto",
          "reduceOptions": {
            "calcs": [
              "last"
            ],
            "fields": "",
            "values": false
          },
          "textMode": "value"
        },
        "pluginVersion": "9.3.1",
        "targets": [
          {
            "datasource": {
              "type": "prometheus",
              "uid": "prometheus"
            },
            "expr": "sum(\r\n    increase(worker_execution_timeout_errors_total{cluster=~\"^($cluster)$\", namespace=~\"^($namespace)$\", pod=~\"^($pod)$\", company=~\"^($company)$\"}[$__range])\r\n) by (namespace, company) > 0",
            "instant": true,
            "interval": "",
            "legendFormat": "",
            "refId": "B"
          }
        ],
        "title": "execution timeout errors",
        "type": "stat"
      },
      {
        "datasource": {
          "type": "prometheus",
          "uid": "prometheus"
        },
        "fieldConfig": {
          "defaults": {
            "mappings": [],
            "noValue": "0",
            "thresholds": {
              "mode": "absolute",
              "steps": [
                {
                  "color": "green",
                  "value": null
                },
                {
                  "color": "#EAB839",
                  "value": 2
                },
                {
                  "color": "dark-red",
                  "value": 5
                }
              ]
            }
          },
          "overrides": []
        },
        "gridPos": {
          "h": 6,
          "w": 3,
          "x": 15,
          "y": 12
        },
        "id": 54,
        "options": {
          "colorMode": "value",
          "graphMode": "area",
          "justifyMode": "auto",
          "orientation": "auto",
          "reduceOptions": {
            "calcs": [
              "delta"
            ],
            "fields": "",
            "values": false
          },
          "textMode": "auto"
        },
        "pluginVersion": "9.3.1",
        "targets": [
          {
            "datasource": {
              "type": "prometheus",
              "uid": "prometheus"
            },
            "expr": "sum(\r\n    increase(worker_compilation_timeout_errors_total{cluster=~\"^($cluster)$\", namespace=~\"^($namespace)$\", pod=~\"^($pod)$\", company=~\"^($company)$\"}[$__rate_interval])\r\n) by (namespace, company)",
            "interval": "",
            "legendFormat": "",
            "refId": "A"
          }
        ],
        "title": "compilation timeout errors",
        "type": "stat"
      },
      {
        "datasource": {
          "type": "prometheus",
          "uid": "prometheus"
        },
        "fieldConfig": {
          "defaults": {
            "mappings": [],
            "noValue": "0",
            "thresholds": {
              "mode": "absolute",
              "steps": [
                {
                  "color": "green",
                  "value": null
                },
                {
                  "color": "#EAB839",
                  "value": 2
                },
                {
                  "color": "dark-red",
                  "value": 5
                }
              ]
            }
          },
          "overrides": []
        },
        "gridPos": {
          "h": 6,
          "w": 3,
          "x": 18,
          "y": 12
        },
        "id": 41,
        "interval": "",
        "links": [],
        "options": {
          "colorMode": "value",
          "graphMode": "area",
          "justifyMode": "auto",
          "orientation": "auto",
          "reduceOptions": {
            "calcs": [
              "last"
            ],
            "fields": "",
            "values": false
          },
          "textMode": "value"
        },
        "pluginVersion": "9.3.1",
        "targets": [
          {
            "$$hashKey": "object:393",
            "aggregation": "Last",
            "datasource": {
              "type": "prometheus",
              "uid": "prometheus"
            },
            "decimals": 2,
            "displayAliasType": "Warning / Critical",
            "displayType": "Regular",
            "displayValueWithAlias": "Never",
            "expr": "sum(\r\n    increase(worker_execution_system_errors_total{cluster=~\"^($cluster)$\", namespace=~\"^($namespace)$\", pod=~\"^($pod)$\", company=~\"^($company)$\"}[$__range])\r\n) by (namespace, company) > 0",
            "instant": false,
            "interval": "",
            "legendFormat": "",
            "refId": "A",
            "units": "none",
            "valueHandler": "Number Threshold"
          }
        ],
        "title": "execution system errors",
        "type": "stat"
      },
      {
        "datasource": {
          "type": "prometheus",
          "uid": "prometheus"
        },
        "fieldConfig": {
          "defaults": {
            "mappings": [],
            "noValue": "0",
            "thresholds": {
              "mode": "absolute",
              "steps": [
                {
                  "color": "green",
                  "value": null
                },
                {
                  "color": "#EAB839",
                  "value": 2
                },
                {
                  "color": "dark-red",
                  "value": 5
                }
              ]
            }
          },
          "overrides": []
        },
        "gridPos": {
          "h": 6,
          "w": 3,
          "x": 21,
          "y": 12
        },
        "id": 53,
        "interval": "",
        "options": {
          "colorMode": "value",
          "graphMode": "area",
          "justifyMode": "auto",
          "orientation": "auto",
          "reduceOptions": {
            "calcs": [
              "sum"
            ],
            "fields": "",
            "values": false
          },
          "textMode": "auto"
        },
        "pluginVersion": "9.3.1",
        "targets": [
          {
            "datasource": {
              "type": "prometheus",
              "uid": "prometheus"
            },
            "expr": "sum(\r\n    increase(worker_compilation_system_errors_total{cluster=~\"^($cluster)$\", namespace=~\"^($namespace)$\", pod=~\"^($pod)$\", company=~\"^($company)$\"}[$__rate_interval])\r\n) by (namespace, company) > 0",
            "interval": "",
            "legendFormat": "",
            "refId": "A"
          }
        ],
        "title": "compilation system errors",
        "type": "stat"
      },
      {
        "aliasColors": {},
        "bars": false,
        "dashLength": 10,
        "dashes": false,
        "datasource": {
          "type": "prometheus",
          "uid": "prometheus"
        },
        "fill": 1,
        "fillGradient": 0,
        "gridPos": {
          "h": 7,
          "w": 12,
          "x": 0,
          "y": 18
        },
        "hiddenSeries": false,
        "id": 47,
        "interval": "$interval",
        "legend": {
          "alignAsTable": true,
          "avg": false,
          "current": false,
          "hideEmpty": true,
          "hideZero": true,
          "max": true,
          "min": false,
          "rightSide": true,
          "show": true,
          "sort": "max",
          "sortDesc": true,
          "total": false,
          "values": true
        },
        "lines": true,
        "linewidth": 1,
        "nullPointMode": "null",
        "options": {
          "alertThreshold": true
        },
        "percentage": false,
        "pluginVersion": "9.3.1",
        "pointradius": 2,
        "points": false,
        "renderer": "flot",
        "seriesOverrides": [],
        "spaceLength": 10,
        "stack": false,
        "steppedLine": false,
        "targets": [
          {
            "datasource": {
              "type": "prometheus",
              "uid": "prometheus"
            },
            "expr": "histogram_quantile(0.95,\n  sum by (le, namespace, company, source) (rate(worker_script_compile_time_histogram_bucket{cluster=~\"^($cluster)$\", namespace=~\"^($namespace)$\", pod=~\"^($pod)$\", company=~\"^($company)$\"}[$__rate_interval]))\n)",
            "hide": false,
            "interval": "",
            "legendFormat": "p95 {{namespace}} {{company}} {{source}}",
            "refId": "B"
          }
        ],
        "thresholds": [],
        "timeRegions": [],
        "title": "script compile time",
        "tooltip": {
          "shared": true,
          "sort": 2,
          "value_type": "individual"
        },
        "type": "graph",
        "xaxis": {
          "mode": "time",
          "show": true,
          "values": []
        },
        "yaxes": [
          {
            "format": "ms",
            "logBase": 1,
            "show": true
          },
          {
            "format": "short",
            "logBase": 1,
            "show": true
          }
        ],
        "yaxis": {
          "align": false
        }
      },
      {
        "aliasColors": {},
        "bars": false,
        "dashLength": 10,
        "dashes": false,
        "datasource": {
          "type": "prometheus",
          "uid": "prometheus"
        },
        "fill": 1,
        "fillGradient": 0,
        "gridPos": {
          "h": 7,
          "w": 12,
          "x": 12,
          "y": 18
        },
        "hiddenSeries": false,
        "id": 49,
        "interval": "$interval",
        "legend": {
          "alignAsTable": true,
          "avg": false,
          "current": false,
          "hideEmpty": true,
          "hideZero": true,
          "max": true,
          "min": false,
          "rightSide": true,
          "show": true,
          "sort": "total",
          "sortDesc": true,
          "total": true,
          "values": true
        },
        "lines": true,
        "linewidth": 1,
        "nullPointMode": "null as zero",
        "options": {
          "alertThreshold": true
        },
        "percentage": false,
        "pluginVersion": "9.3.1",
        "pointradius": 2,
        "points": false,
        "renderer": "flot",
        "seriesOverrides": [],
        "spaceLength": 10,
        "stack": false,
        "steppedLine": false,
        "targets": [
          {
            "datasource": {
              "type": "prometheus",
              "uid": "prometheus"
            },
            "expr": "topk(5, \r\n  histogram_quantile(0.95, sum(rate(worker_script_execution_time_histogram_bucket{cluster=~\"^($cluster)$\", namespace=~\"^($namespace)$\", pod=~\"^($pod)$\", company=~\"^($company)$\"}[$__rate_interval])) by (le, namespace, company, source))\r\n) > 0",
            "instant": false,
            "interval": "",
            "legendFormat": "p95 {{cluster}} {{namespace}} {{company}} {{source}}",
            "refId": "A"
          }
        ],
        "thresholds": [
          {
            "$$hashKey": "object:856",
            "colorMode": "warning",
            "fill": false,
            "line": true,
            "op": "gt",
            "value": 30000,
            "yaxis": "left"
          },
          {
            "$$hashKey": "object:862",
            "colorMode": "critical",
            "fill": true,
            "line": true,
            "op": "gt",
            "value": 60000,
            "yaxis": "left"
          }
        ],
        "timeRegions": [],
        "title": "script execution time",
        "tooltip": {
          "shared": true,
          "sort": 2,
          "value_type": "individual"
        },
        "type": "graph",
        "xaxis": {
          "mode": "time",
          "show": true,
          "values": []
        },
        "yaxes": [
          {
            "format": "ms",
            "logBase": 1,
            "show": true
          },
          {
            "format": "short",
            "logBase": 1,
            "show": true
          }
        ],
        "yaxis": {
          "align": false
        }
      },
      {
        "aliasColors": {},
        "breakPoint": "25%",
        "combine": {
          "label": "Others",
          "threshold": "0.01"
        },
        "datasource": {
          "type": "prometheus",
          "uid": "prometheus"
        },
        "fontSize": "80%",
        "format": "short",
        "gridPos": {
          "h": 8,
          "w": 12,
          "x": 0,
          "y": 25
        },
        "id": 33,
        "legend": {
          "percentage": true,
          "show": true,
          "sort": "total",
          "sortDesc": true,
          "values": true
        },
        "legendType": "Right side",
        "links": [],
        "nullPointMode": "connected",
        "pieType": "pie",
        "pluginVersion": "7.3.6",
        "strokeWidth": 1,
        "targets": [
          {
            "datasource": {
              "type": "prometheus",
              "uid": "prometheus"
            },
            "expr": "sum(\r\n    increase(worker_compilation_scripts_total{cluster=~\"^($cluster)$\", namespace=~\"^($namespace)$\", pod=~\"^($pod)$\", company=~\"^($company)$\"}[$interval])\r\n) by (namespace, company, source) > 0",
            "interval": "$interval",
            "legendFormat": "{{namespace}} {{company}} {{source}}",
            "refId": "A"
          }
        ],
        "title": "compilation scripts total",
        "type": "grafana-piechart-panel",
        "valueName": "total"
      },
      {
        "aliasColors": {},
        "breakPoint": "50%",
        "combine": {
          "label": "Others",
          "threshold": "0.01"
        },
        "datasource": {
          "type": "prometheus",
          "uid": "prometheus"
        },
        "fontSize": "80%",
        "format": "short",
        "gridPos": {
          "h": 8,
          "w": 12,
          "x": 12,
          "y": 25
        },
        "id": 35,
        "legend": {
          "percentage": true,
          "show": true,
          "sort": "total",
          "sortDesc": true,
          "values": true
        },
        "legendType": "Right side",
        "links": [],
        "nullPointMode": "connected",
        "pieType": "pie",
        "pluginVersion": "7.3.6",
        "strokeWidth": 1,
        "targets": [
          {
            "datasource": {
              "type": "prometheus",
              "uid": "prometheus"
            },
            "expr": "sum(\r\n    increase(worker_execute_scripts_total{cluster=~\"^($cluster)$\", namespace=~\"^($namespace)$\", pod=~\"^($pod)$\", company=~\"^($company)$\"}[$interval])\r\n) by (namespace, company, source) > 0",
            "interval": "$interval",
            "legendFormat": "{{namespace}} {{company}} {{source}}",
            "refId": "A"
          }
        ],
        "title": "execute scripts total",
        "type": "grafana-piechart-panel",
        "valueName": "total"
      },
      {
        "aliasColors": {},
        "bars": false,
        "dashLength": 10,
        "dashes": false,
        "datasource": {
          "type": "prometheus",
          "uid": "prometheus"
        },
        "description": "",
        "fill": 1,
        "fillGradient": 0,
        "gridPos": {
          "h": 12,
          "w": 12,
          "x": 0,
          "y": 33
        },
        "hiddenSeries": false,
        "id": 51,
        "legend": {
          "alignAsTable": true,
          "avg": false,
          "current": false,
          "hideEmpty": true,
          "hideZero": true,
          "max": true,
          "min": false,
          "rightSide": true,
          "show": true,
          "sort": "max",
          "sortDesc": true,
          "total": false,
          "values": true
        },
        "lines": true,
        "linewidth": 1,
        "nullPointMode": "null",
        "options": {
          "alertThreshold": true
        },
        "percentage": false,
        "pluginVersion": "9.3.1",
        "pointradius": 2,
        "points": false,
        "renderer": "flot",
        "seriesOverrides": [],
        "spaceLength": 10,
        "stack": false,
        "steppedLine": false,
        "targets": [
          {
            "datasource": {
              "type": "prometheus",
              "uid": "prometheus"
            },
            "expr": "topk(5, histogram_quantile(0.95, \r\n    sum(rate(scripts_execute_duration_bucket{cluster=~\"^($cluster)$\", namespace=~\"^($namespace)$\", pod=~\"^processor.*\", company=~\"^($company)$\"}[$__rate_interval])) by (le, namespace)\r\n)) >= 1",
            "hide": false,
            "interval": "",
            "intervalFactor": 1,
            "legendFormat": "processor {{namespace}}",
            "refId": "A"
          },
          {
            "datasource": {
              "type": "prometheus",
              "uid": "prometheus"
            },
            "expr": "topk(5, histogram_quantile(0.95, \r\n    sum(rate(scripts_execute_duration_bucket{cluster=~\"^($cluster)$\", namespace=~\"^($namespace)$\", pod=~\"^widget.*\", company=~\"^($company)$\"}[$__rate_interval])) by (le, namespace)\r\n)) >= 1",
            "hide": false,
            "interval": "",
            "intervalFactor": 1,
            "legendFormat": "widget {{namespace}}",
            "refId": "B"
          },
          {
            "datasource": {
              "type": "prometheus",
              "uid": "prometheus"
            },
            "expr": "topk(5, histogram_quantile(0.95, \r\n    sum(rate(scripts_execute_duration_bucket{cluster=~\"^($cluster)$\", namespace=~\"^($namespace)$\", pod=~\"^integrations.*\", company=~\"^($company)$\"}[$__rate_interval])) by (le, namespace)\r\n)) >= 1",
            "hide": false,
            "interval": "",
            "intervalFactor": 1,
            "legendFormat": "integrations {{namespace}}",
            "refId": "C"
          },
          {
            "datasource": {
              "type": "prometheus",
              "uid": "prometheus"
            },
            "expr": "topk(5, histogram_quantile(0.95, \r\n    sum(rate(scripts_execute_duration_bucket{cluster=~\"^($cluster)$\", namespace=~\"^($namespace)$\", pod=~\"^event-bus.*\", company=~\"^($company)$\"}[$__rate_interval])) by (le, namespace)\r\n)) >= 1",
            "hide": false,
            "interval": "",
            "intervalFactor": 1,
            "legendFormat": "event-bus {{namespace}}",
            "refId": "D"
          }
        ],
        "thresholds": [],
        "timeRegions": [],
        "title": "client script execute time",
        "tooltip": {
          "shared": true,
          "sort": 2,
          "value_type": "individual"
        },
        "type": "graph",
        "xaxis": {
          "mode": "time",
          "show": true,
          "values": []
        },
        "yaxes": [
          {
            "$$hashKey": "object:1862",
            "format": "ms",
            "logBase": 1,
            "show": true
          },
          {
            "$$hashKey": "object:1863",
            "format": "short",
            "logBase": 1,
            "show": true
          }
        ],
        "yaxis": {
          "align": false
        }
      },
      {
        "aliasColors": {},
        "bars": true,
        "dashLength": 10,
        "dashes": false,
        "datasource": {
          "type": "prometheus",
          "uid": "prometheus"
        },
        "editable": true,
        "error": false,
        "fill": 1,
        "fillGradient": 0,
        "grid": {},
        "gridPos": {
          "h": 12,
          "w": 12,
          "x": 12,
          "y": 33
        },
        "hiddenSeries": false,
        "id": 9,
        "isNew": true,
        "legend": {
          "alignAsTable": true,
          "avg": true,
          "current": true,
          "hideEmpty": true,
          "hideZero": true,
          "max": true,
          "min": false,
          "rightSide": true,
          "show": true,
          "sort": "avg",
          "sortDesc": true,
          "total": false,
          "values": true
        },
        "lines": true,
        "linewidth": 2,
        "links": [],
        "nullPointMode": "null",
        "options": {
          "alertThreshold": true
        },
        "percentage": false,
        "pluginVersion": "9.3.1",
        "pointradius": 5,
        "points": true,
        "renderer": "flot",
        "seriesOverrides": [],
        "spaceLength": 10,
        "stack": false,
        "steppedLine": false,
        "targets": [
          {
            "datasource": {
              "type": "prometheus",
              "uid": "prometheus"
            },
            "expr": "histogram_quantile(0.5, sum(irate(http_server_request_duration_seconds_bucket{cluster=~\"^($cluster)$\", namespace=~\"^($namespace)$\", pod=~\"^($pod)$\"}[1m])) by (le, cluster, namespace, pod))",
            "format": "time_series",
            "interval": "",
            "intervalFactor": 1,
            "legendFormat": "p50 {{namespace}} {{pod}}",
            "metric": "http_server_request_duration_seconds_bucket",
            "refId": "A",
            "step": 4
          },
          {
            "datasource": {
              "type": "prometheus",
              "uid": "prometheus"
            },
            "expr": "histogram_quantile(0.95, sum(irate(http_server_request_duration_seconds_bucket{cluster=~\"^($cluster)$\", namespace=~\"^($namespace)$\",pod=~\"^($pod)$\"}[1m])) by (le, cluster, namespace, pod))",
            "interval": "",
            "legendFormat": "p95 {{namespace}} {{pod}}",
            "refId": "B"
          },
          {
            "datasource": {
              "type": "prometheus",
              "uid": "prometheus"
            },
            "expr": "histogram_quantile(0.99, sum(irate(http_server_request_duration_seconds_bucket{cluster=~\"^($cluster)$\", namespace=~\"^($namespace)$\",pod=~\"^($pod)$\"}[1m])) by (le, cluster, namespace, pod))",
            "interval": "",
            "legendFormat": "p99 {{namespace}} {{pod}}",
            "refId": "C"
          }
        ],
        "thresholds": [],
        "timeRegions": [],
        "title": "http_server_request_duration",
        "tooltip": {
          "msResolution": false,
          "shared": true,
          "sort": 2,
          "value_type": "cumulative"
        },
        "transformations": [
          {
            "id": "filterByRefId",
            "options": {
              "include": "C"
            }
          }
        ],
        "type": "graph",
        "xaxis": {
          "mode": "time",
          "show": true,
          "values": []
        },
        "yaxes": [
          {
            "format": "s",
            "logBase": 1,
            "min": "0",
            "show": true
          },
          {
            "format": "short",
            "logBase": 1,
            "show": true
          }
        ],
        "yaxis": {
          "align": false
        }
      },
      {
        "collapsed": true,
        "datasource": {
          "type": "prometheus",
          "uid": "prometheus"
        },
        "gridPos": {
          "h": 1,
          "w": 24,
          "x": 0,
          "y": 45
        },
        "id": 61,
        "panels": [
          {
            "aliasColors": {},
            "bars": false,
            "dashLength": 10,
            "dashes": false,
            "datasource": {
              "type": "prometheus",
              "uid": "prometheus"
            },
            "editable": true,
            "error": false,
            "fieldConfig": {
              "defaults": {
                "custom": {}
              },
              "overrides": []
            },
            "fill": 1,
            "fillGradient": 0,
            "grid": {},
            "gridPos": {
              "h": 8,
              "w": 12,
              "x": 0,
              "y": 46
            },
            "hiddenSeries": false,
            "id": 1,
            "isNew": true,
            "legend": {
              "alignAsTable": true,
              "avg": true,
              "current": true,
              "max": true,
              "min": false,
              "rightSide": false,
              "show": true,
              "sort": "current",
              "sortDesc": true,
              "total": false,
              "values": true
            },
            "lines": true,
            "linewidth": 2,
            "links": [],
            "nullPointMode": "null",
            "options": {
              "alertThreshold": true
            },
            "percentage": false,
            "pluginVersion": "7.3.6",
            "pointradius": 5,
            "points": false,
            "renderer": "flot",
            "seriesOverrides": [
              {
                "alias": "resident",
                "yaxis": 2
              }
            ],
            "spaceLength": 10,
            "stack": false,
            "steppedLine": false,
            "targets": [
              {
                "datasource": {
                  "type": "prometheus",
                  "uid": "prometheus"
                },
                "exemplar": true,
                "expr": "process_resident_memory_bytes{cluster=~\"^($cluster)$\", namespace=~\"^($namespace)$\", pod=~\"^($pod)$\"}",
                "format": "time_series",
                "interval": "",
                "intervalFactor": 2,
                "legendFormat": "Resident {{namespace}} {{pod}}",
                "metric": "process_resident_memory_bytes",
                "refId": "A",
                "step": 4
              },
              {
                "datasource": {
                  "type": "prometheus",
                  "uid": "prometheus"
                },
                "exemplar": true,
                "expr": "process_virtual_memory_bytes{cluster=~\"^($cluster)$\", namespace=~\"^($namespace)$\", pod=~\"^($pod)$\"}",
                "format": "time_series",
                "interval": "",
                "intervalFactor": 2,
                "legendFormat": "Virtual {{namespace}} {{pod}}",
                "metric": "process_virtual_memory_bytes",
                "refId": "B",
                "step": 4
              }
            ],
            "thresholds": [],
            "timeRegions": [],
            "title": "process memory",
            "tooltip": {
              "msResolution": false,
              "shared": true,
              "sort": 2,
              "value_type": "cumulative"
            },
            "transformations": [
              {
                "id": "filterByRefId",
                "options": {
                  "include": "A"
                }
              }
            ],
            "type": "graph",
            "xaxis": {
              "mode": "time",
              "show": true,
              "values": []
            },
            "yaxes": [
              {
                "format": "bytes",
                "logBase": 1,
                "show": true
              },
              {
                "format": "short",
                "logBase": 1,
                "show": true
              }
            ],
            "yaxis": {
              "align": false
            }
          },
          {
            "aliasColors": {},
            "bars": false,
            "dashLength": 10,
            "dashes": false,
            "datasource": {
              "type": "prometheus",
              "uid": "prometheus"
            },
            "editable": true,
            "error": false,
            "fieldConfig": {
              "defaults": {
                "custom": {}
              },
              "overrides": []
            },
            "fill": 1,
            "fillGradient": 0,
            "grid": {},
            "gridPos": {
              "h": 8,
              "w": 12,
              "x": 12,
              "y": 46
            },
            "hiddenSeries": false,
            "id": 4,
            "isNew": true,
            "legend": {
              "alignAsTable": true,
              "avg": true,
              "current": true,
              "max": true,
              "min": false,
              "show": true,
              "sort": "current",
              "sortDesc": true,
              "total": false,
              "values": true
            },
            "lines": true,
            "linewidth": 2,
            "links": [],
            "nullPointMode": "null",
            "options": {
              "alertThreshold": true
            },
            "percentage": false,
            "pluginVersion": "7.3.6",
            "pointradius": 5,
            "points": false,
            "renderer": "flot",
            "seriesOverrides": [
              {
                "alias": "resident",
                "yaxis": 1
              }
            ],
            "spaceLength": 10,
            "stack": false,
            "steppedLine": false,
            "targets": [
              {
                "datasource": {
                  "type": "prometheus",
                  "uid": "prometheus"
                },
                "expr": "rate(process_resident_memory_bytes{cluster=~\"^($cluster)$\", namespace=~\"^($namespace)$\", pod=~\"^($pod)$\"}[$interval])",
                "format": "time_series",
                "interval": "",
                "intervalFactor": 2,
                "legendFormat": "Resident {{cluster}} {{namespace}} {{pod}}",
                "metric": "process_resident_memory_bytes",
                "refId": "A",
                "step": 4
              },
              {
                "datasource": {
                  "type": "prometheus",
                  "uid": "prometheus"
                },
                "expr": "deriv(process_virtual_memory_bytes{cluster=~\"^($cluster)$\", namespace=~\"^($namespace)$\",pod=~\"^($pod)$\"}[$interval])",
                "format": "time_series",
                "interval": "",
                "intervalFactor": 2,
                "legendFormat": "Virtual {{cluster}} {{namespace}} {{pod}}",
                "metric": "process_virtual_memory_bytes",
                "refId": "B",
                "step": 4
              }
            ],
            "thresholds": [],
            "timeRegions": [],
            "title": "process memory deriv",
            "tooltip": {
              "msResolution": false,
              "shared": true,
              "sort": 2,
              "value_type": "cumulative"
            },
            "transformations": [
              {
                "id": "filterByRefId",
                "options": {
                  "include": "A"
                }
              }
            ],
            "type": "graph",
            "xaxis": {
              "mode": "time",
              "show": true,
              "values": []
            },
            "yaxes": [
              {
                "format": "bytes",
                "logBase": 1,
                "show": true
              },
              {
                "format": "short",
                "logBase": 1,
                "show": true
              }
            ],
            "yaxis": {
              "align": false
            }
          },
          {
            "aliasColors": {},
            "bars": false,
            "dashLength": 10,
            "dashes": false,
            "datasource": {
              "type": "prometheus",
              "uid": "prometheus"
            },
            "editable": true,
            "error": false,
            "fieldConfig": {
              "defaults": {
                "custom": {}
              },
              "overrides": []
            },
            "fill": 1,
            "fillGradient": 0,
            "grid": {},
            "gridPos": {
              "h": 8,
              "w": 12,
              "x": 0,
              "y": 54
            },
            "hiddenSeries": false,
            "id": 2,
            "isNew": true,
            "legend": {
              "alignAsTable": true,
              "avg": true,
              "current": true,
              "max": true,
              "min": false,
              "show": true,
              "sort": "current",
              "sortDesc": true,
              "total": false,
              "values": true
            },
            "lines": true,
            "linewidth": 2,
            "links": [],
            "nullPointMode": "null",
            "options": {
              "alertThreshold": true
            },
            "percentage": false,
            "pluginVersion": "7.3.6",
            "pointradius": 5,
            "points": false,
            "renderer": "flot",
            "seriesOverrides": [
              {
                "alias": "alloc rate",
                "yaxis": 2
              }
            ],
            "spaceLength": 10,
            "stack": false,
            "steppedLine": false,
            "targets": [
              {
                "datasource": {
                  "type": "prometheus",
                  "uid": "prometheus"
                },
                "expr": "go_memstats_alloc_bytes{cluster=~\"^($cluster)$\", namespace=~\"^($namespace)$\", pod=~\"^($pod)$\"}",
                "format": "time_series",
                "interval": "",
                "intervalFactor": 2,
                "legendFormat": "Bytes allocated {{cluster}} {{namespace}} {{pod}}",
                "metric": "go_memstats_alloc_bytes",
                "refId": "A",
                "step": 4
              },
              {
                "datasource": {
                  "type": "prometheus",
                  "uid": "prometheus"
                },
                "expr": "rate(go_memstats_alloc_bytes_total{cluster=~\"^($cluster)$\", namespace=~\"^($namespace)$\",pod=~\"^($pod)$\"}[30s])",
                "format": "time_series",
                "interval": "",
                "intervalFactor": 2,
                "legendFormat": "Alloc rate {{cluster}} {{namespace}} {{pod}}",
                "metric": "go_memstats_alloc_bytes_total",
                "refId": "B",
                "step": 4
              },
              {
                "datasource": {
                  "type": "prometheus",
                  "uid": "prometheus"
                },
                "expr": "go_memstats_stack_inuse_bytes{cluster=~\"^($cluster)$\", namespace=~\"^($namespace)$\",pod=~\"^($pod)$\"}",
                "format": "time_series",
                "interval": "",
                "intervalFactor": 2,
                "legendFormat": "Stack inuse {{cluster}} {{namespace}} {{pod}}",
                "metric": "go_memstats_stack_inuse_bytes",
                "refId": "C",
                "step": 4
              },
              {
                "datasource": {
                  "type": "prometheus",
                  "uid": "prometheus"
                },
                "expr": "go_memstats_heap_inuse_bytes{cluster=~\"^($cluster)$\", namespace=~\"^($namespace)$\",pod=~\"^($pod)$\"}",
                "format": "time_series",
                "hide": false,
                "interval": "",
                "intervalFactor": 2,
                "legendFormat": "Heap inuse {{cluster}} {{namespace}} {{pod}}",
                "metric": "go_memstats_heap_inuse_bytes",
                "refId": "D",
                "step": 4
              }
            ],
            "thresholds": [],
            "timeRegions": [],
            "title": "go memstats",
            "tooltip": {
              "msResolution": false,
              "shared": true,
              "sort": 2,
              "value_type": "cumulative"
            },
            "type": "graph",
            "xaxis": {
              "mode": "time",
              "show": true,
              "values": []
            },
            "yaxes": [
              {
                "format": "bytes",
                "logBase": 1,
                "show": true
              },
              {
                "format": "Bps",
                "logBase": 1,
                "show": true
              }
            ],
            "yaxis": {
              "align": false
            }
          },
          {
            "aliasColors": {},
            "bars": false,
            "dashLength": 10,
            "dashes": false,
            "datasource": {
              "type": "prometheus",
              "uid": "prometheus"
            },
            "editable": true,
            "error": false,
            "fieldConfig": {
              "defaults": {
                "custom": {}
              },
              "overrides": []
            },
            "fill": 1,
            "fillGradient": 0,
            "grid": {},
            "gridPos": {
              "h": 8,
              "w": 12,
              "x": 12,
              "y": 54
            },
            "hiddenSeries": false,
            "id": 5,
            "isNew": true,
            "legend": {
              "alignAsTable": true,
              "avg": true,
              "current": true,
              "max": true,
              "min": false,
              "show": true,
              "sort": "current",
              "sortDesc": true,
              "total": false,
              "values": true
            },
            "lines": true,
            "linewidth": 2,
            "links": [],
            "nullPointMode": "null",
            "options": {
              "alertThreshold": true
            },
            "percentage": false,
            "pluginVersion": "7.3.6",
            "pointradius": 5,
            "points": false,
            "renderer": "flot",
            "seriesOverrides": [
              {
                "alias": "alloc rate",
                "yaxis": 2
              }
            ],
            "spaceLength": 10,
            "stack": false,
            "steppedLine": false,
            "targets": [
              {
                "datasource": {
                  "type": "prometheus",
                  "uid": "prometheus"
                },
                "expr": "deriv(go_memstats_alloc_bytes{cluster=~\"^($cluster)$\", namespace=~\"^($namespace)$\", pod=~\"^($pod)$\"}[$interval])",
                "format": "time_series",
                "interval": "",
                "intervalFactor": 2,
                "legendFormat": "Bytes allocated {{cluster}} {{namespace}} {{pod}}",
                "metric": "go_memstats_alloc_bytes",
                "refId": "A",
                "step": 4
              },
              {
                "datasource": {
                  "type": "prometheus",
                  "uid": "prometheus"
                },
                "expr": "rate(go_memstats_alloc_bytes_total{cluster=~\"^($cluster)$\", namespace=~\"^($namespace)$\", pod=~\"^($pod)$\"}[$interval])",
                "format": "time_series",
                "interval": "",
                "intervalFactor": 2,
                "legendFormat": "Alloc rate {{cluster}} {{namespace}} {{pod}}",
                "metric": "go_memstats_alloc_bytes_total",
                "refId": "B",
                "step": 4
              },
              {
                "datasource": {
                  "type": "prometheus",
                  "uid": "prometheus"
                },
                "expr": "deriv(go_memstats_stack_inuse_bytes{cluster=~\"^($cluster)$\", namespace=~\"^($namespace)$\", pod=~\"^($pod)$\"}[$interval])",
                "format": "time_series",
                "interval": "",
                "intervalFactor": 2,
                "legendFormat": "Stack inuse {{cluster}} {{namespace}} {{pod}}",
                "metric": "go_memstats_stack_inuse_bytes",
                "refId": "C",
                "step": 4
              },
              {
                "datasource": {
                  "type": "prometheus",
                  "uid": "prometheus"
                },
                "expr": "deriv(go_memstats_heap_inuse_bytes{cluster=~\"^($cluster)$\", namespace=~\"^($namespace)$\", pod=~\"^($pod)$\"}[$interval])",
                "format": "time_series",
                "hide": false,
                "interval": "",
                "intervalFactor": 2,
                "legendFormat": "Heap inuse {{cluster}} {{namespace}} {{pod}}",
                "metric": "go_memstats_heap_inuse_bytes",
                "refId": "D",
                "step": 4
              }
            ],
            "thresholds": [],
            "timeRegions": [],
            "title": "go memstats deriv",
            "tooltip": {
              "msResolution": false,
              "shared": true,
              "sort": 2,
              "value_type": "cumulative"
            },
            "type": "graph",
            "xaxis": {
              "mode": "time",
              "show": true,
              "values": []
            },
            "yaxes": [
              {
                "format": "bytes",
                "logBase": 1,
                "show": true
              },
              {
                "format": "Bps",
                "logBase": 1,
                "show": true
              }
            ],
            "yaxis": {
              "align": false
            }
          },
          {
            "aliasColors": {},
            "bars": false,
            "dashLength": 10,
            "dashes": false,
            "datasource": {
              "type": "prometheus",
              "uid": "prometheus"
            },
            "editable": true,
            "error": false,
            "fieldConfig": {
              "defaults": {
                "custom": {}
              },
              "overrides": []
            },
            "fill": 1,
            "fillGradient": 0,
            "grid": {},
            "gridPos": {
              "h": 11,
              "w": 12,
              "x": 0,
              "y": 62
            },
            "hiddenSeries": false,
            "id": 3,
            "isNew": true,
            "legend": {
              "alignAsTable": true,
              "avg": true,
              "current": true,
              "max": true,
              "min": false,
              "show": true,
              "sort": "current",
              "sortDesc": true,
              "total": false,
              "values": true
            },
            "lines": true,
            "linewidth": 2,
            "links": [],
            "nullPointMode": "null",
            "options": {
              "alertThreshold": true
            },
            "percentage": false,
            "pluginVersion": "7.3.6",
            "pointradius": 5,
            "points": false,
            "renderer": "flot",
            "seriesOverrides": [],
            "spaceLength": 10,
            "stack": false,
            "steppedLine": false,
            "targets": [
              {
                "datasource": {
                  "type": "prometheus",
                  "uid": "prometheus"
                },
                "expr": "process_open_fds{cluster=~\"^($cluster)$\", namespace=~\"^($namespace)$\", pod=~\"^($pod)$\"}",
                "format": "time_series",
                "interval": "",
                "intervalFactor": 2,
                "legendFormat": "{{cluster}} {{namespace}} {{pod}}",
                "metric": "process_open_fds",
                "refId": "A",
                "step": 4
              }
            ],
            "thresholds": [],
            "timeRegions": [],
            "title": "open fds",
            "tooltip": {
              "msResolution": false,
              "shared": true,
              "sort": 2,
              "value_type": "cumulative"
            },
            "type": "graph",
            "xaxis": {
              "mode": "time",
              "show": true,
              "values": []
            },
            "yaxes": [
              {
                "format": "short",
                "logBase": 1,
                "show": true
              },
              {
                "format": "short",
                "logBase": 1,
                "show": true
              }
            ],
            "yaxis": {
              "align": false
            }
          },
          {
            "aliasColors": {},
            "bars": false,
            "dashLength": 10,
            "dashes": false,
            "datasource": {
              "type": "prometheus",
              "uid": "prometheus"
            },
            "editable": true,
            "error": false,
            "fieldConfig": {
              "defaults": {
                "custom": {}
              },
              "overrides": []
            },
            "fill": 1,
            "fillGradient": 0,
            "grid": {},
            "gridPos": {
              "h": 11,
              "w": 12,
              "x": 12,
              "y": 62
            },
            "hiddenSeries": false,
            "id": 6,
            "isNew": true,
            "legend": {
              "alignAsTable": true,
              "avg": true,
              "current": true,
              "max": true,
              "min": false,
              "show": true,
              "sort": "current",
              "sortDesc": true,
              "total": false,
              "values": true
            },
            "lines": true,
            "linewidth": 2,
            "links": [],
            "nullPointMode": "connected",
            "options": {
              "alertThreshold": true
            },
            "percentage": false,
            "pluginVersion": "7.3.6",
            "pointradius": 5,
            "points": false,
            "renderer": "flot",
            "seriesOverrides": [],
            "spaceLength": 10,
            "stack": false,
            "steppedLine": false,
            "targets": [
              {
                "datasource": {
                  "type": "prometheus",
                  "uid": "prometheus"
                },
                "expr": "deriv(process_open_fds{cluster=~\"^($cluster)$\", namespace=~\"^($namespace)$\", pod=~\"^($pod)$\"}[$interval])",
                "format": "time_series",
                "interval": "",
                "intervalFactor": 2,
                "legendFormat": "{{cluster}} {{namespace}} {{pod}}",
                "metric": "process_open_fds",
                "refId": "A",
                "step": 4
              }
            ],
            "thresholds": [],
            "timeRegions": [],
            "title": "open fds deriv",
            "tooltip": {
              "msResolution": false,
              "shared": true,
              "sort": 2,
              "value_type": "cumulative"
            },
            "type": "graph",
            "xaxis": {
              "mode": "time",
              "show": true,
              "values": []
            },
            "yaxes": [
              {
                "format": "short",
                "logBase": 1,
                "show": true
              },
              {
                "format": "short",
                "logBase": 1,
                "show": true
              }
            ],
            "yaxis": {
              "align": false
            }
          },
          {
            "aliasColors": {},
            "bars": false,
            "dashLength": 10,
            "dashes": false,
            "datasource": {
              "type": "prometheus",
              "uid": "prometheus"
            },
            "editable": true,
            "error": false,
            "fieldConfig": {
              "defaults": {
                "custom": {}
              },
              "overrides": []
            },
            "fill": 1,
            "fillGradient": 0,
            "grid": {},
            "gridPos": {
              "h": 12,
              "w": 12,
              "x": 0,
              "y": 73
            },
            "hiddenSeries": false,
            "id": 7,
            "isNew": true,
            "legend": {
              "alignAsTable": true,
              "avg": true,
              "current": true,
              "max": true,
              "min": false,
              "show": true,
              "sort": "current",
              "sortDesc": true,
              "total": false,
              "values": true
            },
            "lines": true,
            "linewidth": 2,
            "links": [],
            "nullPointMode": "null",
            "options": {
              "alertThreshold": true
            },
            "percentage": false,
            "pluginVersion": "7.3.6",
            "pointradius": 5,
            "points": false,
            "renderer": "flot",
            "seriesOverrides": [],
            "spaceLength": 10,
            "stack": false,
            "steppedLine": false,
            "targets": [
              {
                "datasource": {
                  "type": "prometheus",
                  "uid": "prometheus"
                },
                "expr": "go_goroutines{cluster=~\"^($cluster)$\", namespace=~\"^($namespace)$\", pod=~\"^($pod)$\"}",
                "format": "time_series",
                "interval": "",
                "intervalFactor": 2,
                "legendFormat": "{{cluster}} {{namespace}} {{pod}}",
                "metric": "go_goroutines",
                "refId": "A",
                "step": 4
              }
            ],
            "thresholds": [],
            "timeRegions": [],
            "title": "Goroutines",
            "tooltip": {
              "msResolution": false,
              "shared": true,
              "sort": 2,
              "value_type": "cumulative"
            },
            "type": "graph",
            "xaxis": {
              "mode": "time",
              "show": true,
              "values": []
            },
            "yaxes": [
              {
                "format": "short",
                "logBase": 1,
                "show": true
              },
              {
                "format": "short",
                "logBase": 1,
                "show": true
              }
            ],
            "yaxis": {
              "align": false
            }
          },
          {
            "aliasColors": {},
            "bars": false,
            "dashLength": 10,
            "dashes": false,
            "datasource": {
              "type": "prometheus",
              "uid": "prometheus"
            },
            "editable": true,
            "error": false,
            "fieldConfig": {
              "defaults": {
                "custom": {}
              },
              "overrides": []
            },
            "fill": 1,
            "fillGradient": 0,
            "grid": {},
            "gridPos": {
              "h": 12,
              "w": 12,
              "x": 12,
              "y": 73
            },
            "hiddenSeries": false,
            "id": 8,
            "isNew": true,
            "legend": {
              "alignAsTable": true,
              "avg": true,
              "current": true,
              "max": true,
              "min": false,
              "rightSide": false,
              "show": true,
              "sort": "current",
              "sortDesc": true,
              "total": false,
              "values": true
            },
            "lines": true,
            "linewidth": 2,
            "links": [],
            "nullPointMode": "null",
            "options": {
              "alertThreshold": true
            },
            "percentage": false,
            "pluginVersion": "7.3.6",
            "pointradius": 5,
            "points": false,
            "renderer": "flot",
            "seriesOverrides": [],
            "spaceLength": 10,
            "stack": false,
            "steppedLine": false,
            "targets": [
              {
                "datasource": {
                  "type": "prometheus",
                  "uid": "prometheus"
                },
                "expr": "go_gc_duration_seconds{quantile=~\"1\", cluster=~\"^($cluster)$\", namespace=~\"^($namespace)$\", pod=~\"^($pod)$\"}",
                "format": "time_series",
                "interval": "",
                "intervalFactor": 2,
                "legendFormat": "{{cluster}} {{namespace}} {{pod}} quantile",
                "metric": "go_gc_duration_seconds",
                "refId": "A",
                "step": 4
              }
            ],
            "thresholds": [],
            "timeRegions": [],
            "title": "GC duration quantiles",
            "tooltip": {
              "msResolution": false,
              "shared": true,
              "sort": 2,
              "value_type": "cumulative"
            },
            "type": "graph",
            "xaxis": {
              "mode": "time",
              "show": true,
              "values": []
            },
            "yaxes": [
              {
                "format": "s",
                "logBase": 1,
                "show": true
              },
              {
                "format": "short",
                "logBase": 1,
                "show": true
              }
            ],
            "yaxis": {
              "align": false
            }
          }
        ],
        "targets": [
          {
            "datasource": {
              "type": "prometheus",
              "uid": "prometheus"
            },
            "refId": "A"
          }
        ],
        "title": "GO STATS",
        "type": "row"
      }
    ],
    "refresh": false,
    "schemaVersion": 37,
    "style": "dark",
    "tags": [],
    "templating": {
      "list": [
        {
          "current": {},
          "datasource": {
            "type": "prometheus",
            "uid": "prometheus"
          },
          "definition": "label_values(up, region)",
          "hide": 0,
          "includeAll": false,
          "label": "cluster",
          "multi": false,
          "name": "cluster",
          "options": [],
          "query": {
            "query": "label_values(up, region)",
            "refId": "prometheus-cluster-Variable-Query"
          },
          "refresh": 1,
          "regex": "",
          "skipUrlSync": false,
          "sort": 0,
          "tagValuesQuery": "",
          "tagsQuery": "",
          "type": "query",
          "useTags": false
        },
        {
          "allValue": ".*",
          "current": {},
          "datasource": {
            "type": "prometheus",
            "uid": "prometheus"
          },
          "definition": "query_result(up{job=~\"worker.*\",cluster=~\"$cluster\"})",
          "hide": 0,
          "includeAll": true,
          "multi": true,
          "name": "namespace",
          "options": [],
          "query": {
            "query": "query_result(up{job=~\"worker.*\",cluster=~\"$cluster\"})",
            "refId": "prometheus-namespace-Variable-Query"
          },
          "refresh": 2,
          "regex": "/.namespace=\"([^\"]+)./",
          "skipUrlSync": false,
          "sort": 0,
          "tagValuesQuery": "",
          "tagsQuery": "",
          "type": "query",
          "useTags": false
        },
        {
          "allValue": "worker.*",
          "current": {},
          "datasource": {
            "type": "prometheus",
            "uid": "prometheus"
          },
          "definition": "query_result(up{job=~\"worker.*\",cluster=~\"$cluster\",namespace=~\"$namespace\"})",
          "hide": 0,
          "includeAll": true,
          "multi": true,
          "name": "pod",
          "options": [],
          "query": {
            "query": "query_result(up{job=~\"worker.*\",cluster=~\"$cluster\",namespace=~\"$namespace\"})",
            "refId": "prometheus-pod-Variable-Query"
          },
          "refresh": 2,
          "regex": "/.pod=\"([^\"]+)./",
          "skipUrlSync": false,
          "sort": 0,
          "tagValuesQuery": "",
          "tagsQuery": "",
          "type": "query",
          "useTags": false
        },
        {
          "allValue": ".*",
          "current": {},
          "datasource": {
            "type": "prometheus",
            "uid": "prometheus"
          },
          "definition": "query_result(worker_execute_scripts_total{cluster=~\"^($cluster)$\", namespace=~\"^($namespace)$\"})",
          "hide": 0,
          "includeAll": true,
          "label": "company",
          "multi": false,
          "name": "company",
          "options": [],
          "query": {
            "query": "query_result(worker_execute_scripts_total{cluster=~\"^($cluster)$\", namespace=~\"^($namespace)$\"})",
            "refId": "prometheus-company-Variable-Query"
          },
          "refresh": 1,
          "regex": "/.company=\"([^\"]+)./",
          "skipUrlSync": false,
          "sort": 0,
          "tagValuesQuery": "",
          "tagsQuery": "",
          "type": "query",
          "useTags": false
        },
        {
          "auto": false,
          "auto_count": 30,
          "auto_min": "10s",
          "current": {
            "selected": false,
            "text": "1m",
            "value": "1m"
          },
          "hide": 0,
          "includeAll": false,
          "label": "",
          "multi": false,
          "name": "interval",
          "options": [
            {
              "selected": true,
              "text": "1m",
              "value": "1m"
            },
            {
              "selected": false,
              "text": "5m",
              "value": "5m"
            },
            {
              "selected": false,
              "text": "10m",
              "value": "10m"
            },
            {
              "selected": false,
              "text": "30m",
              "value": "30m"
            },
            {
              "selected": false,
              "text": "1h",
              "value": "1h"
            }
          ],
          "query": "1m,5m,10m,30m,1h",
          "queryValue": "",
          "refresh": 2,
          "skipUrlSync": false,
          "type": "interval"
        }
      ]
    },
    "time": {
      "from": "now-1h",
      "to": "now"
    },
    "timepicker": {
      "refresh_intervals": [
        "10s",
        "30s",
        "1m",
        "5m",
        "15m",
        "30m",
        "1h",
        "2h",
        "1d"
      ],
      "time_options": [
        "5m",
        "15m",
        "1h",
        "6h",
        "12h",
        "24h",
        "2d",
        "7d",
        "30d"
      ]
    },
    "timezone": "browser",
    "title": "worker dashboard 2",
    "version": 4,
    "weekStart": ""
  }
